week05/ex02/wave.vcd
$date
	Wed Oct 18 08:10:49 2023
$end
$version
	Icarus Verilog
$end
$timescale
	1s
$end
$scope module isodd_tb $end
$var wire 8 ! y [7:0] $end
$var wire 8 " x [7:0] $end
$var wire 8 # _y [7:0] $end
$var wire 8 $ _x [7:0] $end
$var reg 8 % a [7:0] $end
$var reg 8 & b [7:0] $end
$var reg 2 ' sel [1:0] $end
$scope module cut $end
$var wire 8 ( a [7:0] $end
$var wire 8 ) b [7:0] $end
$var wire 2 * sel [1:0] $end
$var reg 8 + x [7:0] $end
$var reg 8 , y [7:0] $end
$upscope $end
$scope module expected $end
$var wire 8 - a [7:0] $end
$var wire 8 . b [7:0] $end
$var wire 2 / sel [1:0] $end
$var wire 8 0 y [7:0] $end
$var wire 8 1 x [7:0] $end
$upscope $end
$upscope $end
$enddefinitions $end
#0
$dumpvars
b0 1
b0 0
b0 /
b0 .
b0 -
b0 ,
b0 +
b0 *
b0 )
b0 (
b0 '
b0 &
b0 %
b0 $
b0 #
b0 "
b0 !
$end
#100
b1001101 $
b1001101 1
b1001001 !
b1001001 ,
b1001101 "
b1001101 +
b1001001 #
b1001001 0
b1001101 %
b1001101 (
b1001101 -
b1001001 &
b1001001 )
b1001001 .
#300
b10100000 "
b10100000 +
b1010111 !
b1010111 ,
b10100000 $
b10100000 1
b1010111 #
b1010111 0
b1010111 %
b1010111 (
b1010111 -
b10100000 &
b10100000 )
b10100000 .
b1 '
b1 *
b1 /
#500
b110101 #
b110101 0
b10000010 $
b10000010 1
b10000010 "
b10000010 +
b110101 !
b110101 ,
b110101 %
b110101 (
b110101 -
b10000010 &
b10000010 )
b10000010 .
#700
b10011000 $
b10011000 1
b10011000 #
b10011000 0
b10011000 !
b10011000 ,
b10011000 "
b10011000 +
b10101 %
b10101 (
b10101 -
b10011000 &
b10011000 )
b10011000 .
b11 '
b11 *
b11 /
#900
b11000011 $
b11000011 1
b1011110 #
b1011110 0
b11000011 "
b11000011 +
b1011110 !
b1011110 ,
b1011110 %
b1011110 (
b1011110 -
b11000011 &
b11000011 )
b11000011 .
b1 '
b1 *
b1 /
#1100
b11100110 #
b11100110 0
b1100011 $
b1100011 1
b1100011 "
b1100011 +
b11100110 !
b11100110 ,
b11100110 %
b11100110 (
b11100110 -
b1100011 &
b1100011 )
b1100011 .
#1300
b10100001 #
b10100001 0
b11001 $
b11001 1
b11001 "
b11001 +
b10100001 !
b10100001 ,
b10100001 %
b10100001 (
b10100001 -
b11001 &
b11001 )
b11001 .
#1500
b11010100 $
b11010100 1
b11010100 #
b11010100 0
b11010100 !
b11010100 ,
b11010100 "
b11010100 +
b11010100 %
b11010100 (
b11010100 -
b10000100 &
b10000100 )
b10000100 .
b10 '
b10 *
b10 /
#1700
b11000000 $
b11000000 1
b11111000 #
b11111000 0
b11000000 "
b11000000 +
b11111000 !
b11111000 ,
b11111000 %
b11111000 (
b11111000 -
b11000000 &
b11000000 )
b11000000 .
b1 '
b1 *
b1 /
#1900
b11110011 #
b11110011 0
b1000011 $
b1000011 1
b1000011 "
b1000011 +
b11110011 !
b11110011 ,
b11110011 %
b11110011 (
b11110011 -
b1000011 &
b1000011 )
b1000011 .
#2100
b11111100 $
b11111100 1
b11111100 #
b11111100 0
b11111100 !
b11111100 ,
b11111100 "
b11111100 +
b11111100 %
b11111100 (
b11111100 -
b1011101 &
b1011101 )
b1011101 .
b10 '
b10 *
b10 /
#2300
b1001111 $
b1001111 1
b1110011 #
b1110011 0
b1001111 "
b1001111 +
b1110011 !
b1110011 ,
b1110011 %
b1110011 (
b1110011 -
b1001111 &
b1001111 )
b1001111 .
b1 '
b1 *
b1 /
#2500
b10101 #
b10101 0
b11111011 $
b11111011 1
b11111011 "
b11111011 +
b10101 !
b10101 ,
b10101 %
b10101 (
b10101 -
b11111011 &
b11111011 )
b11111011 .
#2700
b11100011 !
b11100011 ,
b1111101 "
b1111101 +
b1111101 $
b1111101 1
b11100011 #
b11100011 0
b1111101 %
b1111101 (
b1111101 -
b11100011 &
b11100011 )
b11100011 .
b0 '
b0 *
b0 /
#2900
b1111110 "
b1111110 +
b1111010 !
b1111010 ,
b1111110 $
b1111110 1
b1111010 #
b1111010 0
b1111010 %
b1111010 (
b1111010 -
b1111110 &
b1111110 )
b1111110 .
b1 '
b1 *
b1 /
#3100
b11001001 $
b11001001 1
b11001001 #
b11001001 0
b11001001 !
b11001001 ,
b11001001 "
b11001001 +
b11001001 %
b11001001 (
b11001001 -
b110001 &
b110001 )
b110001 .
b10 '
b10 *
b10 /
#3300
b110001 $
b110001 1
b11100001 #
b11100001 0
b110001 "
b110001 +
b11100001 !
b11100001 ,
b11100001 %
b11100001 (
b11100001 -
b1 '
b1 *
b1 /
#3500
b11110100 $
b11110100 1
b11110100 #
b11110100 0
b11110100 !
b11110100 ,
b11110100 "
b11110100 +
b11110100 %
b11110100 (
b11110100 -
b10101010 &
b10101010 )
b10101010 .
b10 '
b10 *
b10 /
#3700
b11111001 $
b11111001 1
b11111101 #
b11111101 0
b11111001 "
b11111001 +
b11111101 !
b11111101 ,
b11111101 %
b11111101 (
b11111101 -
b11111001 &
b11111001 )
b11111001 .
b1 '
b1 *
b1 /
#3900
b10011101 $
b10011101 1
b10011101 #
b10011101 0
b10011101 !
b10011101 ,
b10011101 "
b10011101 +
b10011100 %
b10011100 (
b10011100 -
b10011101 &
b10011101 )
b10011101 .
b11 '
b11 *
b11 /
#4100
b10110101 $
b10110101 1
b10110101 #
b10110101 0
b10110101 !
b10110101 ,
b10110101 "
b10110101 +
b10110101 %
b10110101 (
b10110101 -
b10000100 &
b10000100 )
b10000100 .
b10 '
b10 *
b10 /
#4300
b11100011 $
b11100011 1
b11100011 #
b11100011 0
b11100011 !
b11100011 ,
b11100011 "
b11100011 +
b110110 %
b110110 (
b110110 -
b11100011 &
b11100011 )
b11100011 .
b11 '
b11 *
b11 /
#4500
b11010 $
b11010 1
b11010 #
b11010 0
b11010 !
b11010 ,
b11010 "
b11010 +
b11010 %
b11010 (
b11010 -
b1111100 &
b1111100 )
b1111100 .
b10 '
b10 *
b10 /
#4700
b10100101 $
b10100101 1
b10100101 #
b10100101 0
b10100101 !
b10100101 ,
b10100101 "
b10100101 +
b10100101 %
b10100101 (
b10100101 -
b10110011 &
b10110011 )
b10110011 .
#4900
b10111010 !
b10111010 ,
b11110 "
b11110 +
b11110 $
b11110 1
b10111010 #
b10111010 0
b11110 %
b11110 (
b11110 -
b10111010 &
b10111010 )
b10111010 .
b0 '
b0 *
b0 /
#5100
b10110001 "
b10110001 +
b10010011 !
b10010011 ,
b10110001 $
b10110001 1
b10010011 #
b10010011 0
b10010011 %
b10010011 (
b10010011 -
b10110001 &
b10110001 )
b10110001 .
b1 '
b1 *
b1 /
#5300
b1010111 !
b1010111 ,
b10010 "
b10010 +
b10010 $
b10010 1
b1010111 #
b1010111 0
b10010 %
b10010 (
b10010 -
b1010111 &
b1010111 )
b1010111 .
b0 '
b0 *
b0 /
#5500
b101111 "
b101111 +
b10001010 !
b10001010 ,
b101111 $
b101111 1
b10001010 #
b10001010 0
b10001010 %
b10001010 (
b10001010 -
b101111 &
b101111 )
b101111 .
b1 '
b1 *
b1 /
#5700
b11010110 #
b11010110 0
b1011 $
b1011 1
b1011 "
b1011 +
b11010110 !
b11010110 ,
b11010110 %
b11010110 (
b11010110 -
b1011 &
b1011 )
b1011 .
#5900
b11001001 #
b11001001 0
b10011001 $
b10011001 1
b10011001 "
b10011001 +
b11001001 !
b11001001 ,
b11001001 %
b11001001 (
b11001001 -
b10011001 &
b10011001 )
b10011001 .
#6100
b10011000 $
b10011000 1
b10011000 #
b10011000 0
b10011000 !
b10011000 ,
b10011000 "
b10011000 +
b11011000 %
b11011000 (
b11011000 -
b10011000 &
b10011000 )
b10011000 .
b11 '
b11 *
b11 /
#6300
b11100001 $
b11100001 1
b11100001 #
b11100001 0
b11100001 !
b11100001 ,
b11100001 "
b11100001 +
b11100001 %
b11100001 (
b11100001 -
b11000010 &
b11000010 )
b11000010 .
b10 '
b10 *
b10 /
#6500
b10100000 !
b10100000 ,
b11001000 "
b11001000 +
b11001000 $
b11001000 1
b10100000 #
b10100000 0
b11001000 %
b11001000 (
b11001000 -
b10100000 &
b10100000 )
b10100000 .
b0 '
b0 *
b0 /
#6700
b1000 $
b1000 1
b1001000 !
b1001000 ,
b1000 "
b1000 +
b1001000 #
b1001000 0
b1000 %
b1000 (
b1000 -
b1001000 &
b1001000 )
b1001000 .
#6900
b10001 !
b10001 ,
b10001 "
b10001 +
b10001 $
b10001 1
b10001 #
b10001 0
b10001 %
b10001 (
b10001 -
b1101010 &
b1101010 )
b1101010 .
b10 '
b10 *
b10 /
#7100
b100111 $
b100111 1
b110011 #
b110011 0
b100111 "
b100111 +
b110011 !
b110011 ,
b110011 %
b110011 (
b110011 -
b100111 &
b100111 )
b100111 .
b1 '
b1 *
b1 /
#7300
b1111 $
b1111 1
b1111 #
b1111 0
b1111 !
b1111 ,
b1111 "
b1111 +
b1111 %
b1111 (
b1111 -
b10100101 &
b10100101 )
b10100101 .
b10 '
b10 *
b10 /
#7500
b100 $
b100 1
b100 #
b100 0
b100 !
b100 ,
b100 "
b100 +
b11101110 %
b11101110 (
b11101110 -
b100 &
b100 )
b100 .
b11 '
b11 *
b11 /
#7700
b11 $
b11 1
b1110 #
b1110 0
b11 "
b11 +
b1110 !
b1110 ,
b1110 %
b1110 (
b1110 -
b11 &
b11 )
b11 .
b1 '
b1 *
b1 /
#7900
b10010100 $
b10010100 1
b10010100 #
b10010100 0
b10010100 !
b10010100 ,
b10010100 "
b10010100 +
b11110101 %
b11110101 (
b11110101 -
b10010100 &
b10010100 )
b10010100 .
b11 '
b11 *
b11 /
#8100
b1011010 $
b1011010 1
b1011010 #
b1011010 0
b1011010 !
b1011010 ,
b1011010 "
b1011010 +
b11110111 %
b11110111 (
b11110111 -
b1011010 &
b1011010 )
b1011010 .
#8300
b10110101 $
b10110101 1
b10001010 #
b10001010 0
b10110101 "
b10110101 +
b10001010 !
b10001010 ,
b10001010 %
b10001010 (
b10001010 -
b10110101 &
b10110101 )
b10110101 .
b1 '
b1 *
b1 /
#8500
b11010010 $
b11010010 1
b11010010 #
b11010010 0
b11010010 !
b11010010 ,
b11010010 "
b11010010 +
b11010010 %
b11010010 (
b11010010 -
b10000000 &
b10000000 )
b10000000 .
b10 '
b10 *
b10 /
#8700
b10001111 $
b10001111 1
b10001111 #
b10001111 0
b10001111 !
b10001111 ,
b10001111 "
b10001111 +
b10001111 %
b10001111 (
b10001111 -
b10101011 &
b10101011 )
b10101011 .
#8900
b1000111 $
b1000111 1
b11111010 #
b11111010 0
b1000111 "
b1000111 +
b11111010 !
b11111010 ,
b11111010 %
b11111010 (
b11111010 -
b1000111 &
b1000111 )
b1000111 .
b1 '
b1 *
b1 /
#9100
b10110011 $
b10110011 1
b10110011 #
b10110011 0
b10110011 !
b10110011 ,
b10110011 "
b10110011 +
b1011100 %
b1011100 (
b1011100 -
b10110011 &
b10110011 )
b10110011 .
b11 '
b11 *
b11 /
#9300
b1001000 $
b1001000 1
b1001000 #
b1001000 0
b1001000 !
b1001000 ,
b1001000 "
b1001000 +
b10010 %
b10010 (
b10010 -
b1001000 &
b1001000 )
b1001000 .
#9500
b1011001 $
b1011001 1
b1011001 #
b1011001 0
b1011001 !
b1011001 ,
b1011001 "
b1011001 +
b1011001 %
b1011001 (
b1011001 -
b1000010 &
b1000010 )
b1000010 .
b10 '
b10 *
b10 /
#9700
b11000010 $
b11000010 1
b11000010 #
b11000010 0
b11000010 !
b11000010 ,
b11000010 "
b11000010 +
b11000010 %
b11000010 (
b11000010 -
b10110010 &
b10110010 )
b10110010 .
#9900
b1111 !
b1111 ,
b1010011 "
b1010011 +
b1010011 $
b1010011 1
b1111 #
b1111 0
b1010011 %
b1010011 (
b1010011 -
b1111 &
b1111 )
b1111 .
b0 '
b0 *
b0 /
#10100
b101111 !
b101111 ,
b101111 "
b101111 +
b101111 $
b101111 1
b101111 #
b101111 0
b101111 %
b101111 (
b101111 -
b1111100 &
b1111100 )
b1111100 .
b10 '
b10 *
b10 /
#10300
b10011000 $
b10011000 1
b10011000 #
b10011000 0
b10011000 !
b10011000 ,
b10011000 "
b10011000 +
b10011000 %
b10011000 (
b10011000 -
b1100010 &
b1100010 )
b1100010 .
#10500
b11010000 $
b11010000 1
b101100 #
b101100 0
b11010000 "
b11010000 +
b101100 !
b101100 ,
b101100 %
b101100 (
b101100 -
b11010000 &
b11010000 )
b11010000 .
b1 '
b1 *
b1 /
#10700
b110110 !
b110110 ,
b11001101 "
b11001101 +
b11001101 $
b11001101 1
b110110 #
b110110 0
b11001101 %
b11001101 (
b11001101 -
b110110 &
b110110 )
b110110 .
b0 '
b0 *
b0 /
#10900
b111100 $
b111100 1
b11011110 !
b11011110 ,
b111100 "
b111100 +
b11011110 #
b11011110 0
b111100 %
b111100 (
b111100 -
b11011110 &
b11011110 )
b11011110 .
#11100
b10100010 "
b10100010 +
b10000100 !
b10000100 ,
b10100010 $
b10100010 1
b10000100 #
b10000100 0
b10000100 %
b10000100 (
b10000100 -
b10100010 &
b10100010 )
b10100010 .
b1 '
b1 *
b1 /
#11300
b1111010 $
b1111010 1
b1111010 #
b1111010 0
b1111010 !
b1111010 ,
b1111010 "
b1111010 +
b1000011 %
b1000011 (
b1000011 -
b1111010 &
b1111010 )
b1111010 .
b11 '
b11 *
b11 /
#11500
b10011001 $
b10011001 1
b10011001 #
b10011001 0
b10011001 !
b10011001 ,
b10011001 "
b10011001 +
b10011001 %
b10011001 (
b10011001 -
b1101101 &
b1101101 )
b1101101 .
b10 '
b10 *
b10 /
#11700
b11111110 $
b11111110 1
b11111110 #
b11111110 0
b11111110 !
b11111110 ,
b11111110 "
b11111110 +
b11111110 %
b11111110 (
b11111110 -
b1110001 &
b1110001 )
b1110001 .
#11900
b1000100 $
b1000100 1
b1000100 #
b1000100 0
b1000100 !
b1000100 ,
b1000100 "
b1000100 +
b1000100 %
b1000100 (
b1000100 -
b11101011 &
b11101011 )
b11101011 .
#12100
b10101111 !
b10101111 ,
b1000000 "
b1000000 +
b1000000 $
b1000000 1
b10101111 #
b10101111 0
b1000000 %
b1000000 (
b1000000 -
b10101111 &
b10101111 )
b10101111 .
b0 '
b0 *
b0 /
#12300
b11110111 !
b11110111 ,
b11110111 "
b11110111 +
b11110111 $
b11110111 1
b11110111 #
b11110111 0
b11110111 %
b11110111 (
b11110111 -
b1001010 &
b1001010 )
b1001010 .
b10 '
b10 *
b10 /
#12500
b10000010 $
b10000010 1
b10000010 #
b10000010 0
b10000010 !
b10000010 ,
b10000010 "
b10000010 +
b11100110 %
b11100110 (
b11100110 -
b10000010 &
b10000010 )
b10000010 .
b11 '
b11 *
b11 /
#12700
b10011100 $
b10011100 1
b11101111 #
b11101111 0
b10011100 "
b10011100 +
b11101111 !
b11101111 ,
b11101111 %
b11101111 (
b11101111 -
b10011100 &
b10011100 )
b10011100 .
b1 '
b1 *
b1 /
#12900
b10010000 #
b10010000 0
b1100001 $
b1100001 1
b1100001 "
b1100001 +
b10010000 !
b10010000 ,
b10010000 %
b10010000 (
b10010000 -
b1100001 &
b1100001 )
b1100001 .
#13100
b1010011 $
b1010011 1
b1010011 #
b1010011 0
b1010011 !
b1010011 ,
b1010011 "
b1010011 +
b10010101 %
b10010101 (
b10010101 -
b1010011 &
b1010011 )
b1010011 .
b11 '
b11 *
b11 /
#13300
b1110 $
b1110 1
b1110 #
b1110 0
b1110 !
b1110 ,
b1110 "
b1110 +
b11000 %
b11000 (
b11000 -
b1110 &
b1110 )
b1110 .
#13500
b10001100 $
b10001100 1
b10001100 #
b10001100 0
b10001100 !
b10001100 ,
b10001100 "
b10001100 +
b10001100 %
b10001100 (
b10001100 -
b11001110 &
b11001110 )
b11001110 .
b10 '
b10 *
b10 /
#13700
b11001100 $
b11001100 1
b11001100 #
b11001100 0
b11001100 !
b11001100 ,
b11001100 "
b11001100 +
b11001100 %
b11001100 (
b11001100 -
b10011111 &
b10011111 )
b10011111 .
#13900
b11000101 $
b11000101 1
b10010010 #
b10010010 0
b11000101 "
b11000101 +
b10010010 !
b10010010 ,
b10010010 %
b10010010 (
b10010010 -
b11000101 &
b11000101 )
b11000101 .
b1 '
b1 *
b1 /
#14100
b1100110 #
b1100110 0
b11111100 $
b11111100 1
b11111100 "
b11111100 +
b1100110 !
b1100110 ,
b1100110 %
b1100110 (
b1100110 -
b11111100 &
b11111100 )
b11111100 .
#14300
b10010 #
b10010 0
b11110110 $
b11110110 1
b11110110 "
b11110110 +
b10010 !
b10010 ,
b10010 %
b10010 (
b10010 -
b11110110 &
b11110110 )
b11110110 .
#14500
b11000001 $
b11000001 1
b11000001 #
b11000001 0
b11000001 !
b11000001 ,
b11000001 "
b11000001 +
b11000001 %
b11000001 (
b11000001 -
b11011000 &
b11011000 )
b11011000 .
b10 '
b10 *
b10 /
#14700
b11010011 !
b11010011 ,
b1111110 "
b1111110 +
b1111110 $
b1111110 1
b11010011 #
b11010011 0
b1111110 %
b1111110 (
b1111110 -
b11010011 &
b11010011 )
b11010011 .
b0 '
b0 *
b0 /
#14900
b1100111 !
b1100111 ,
b1100111 "
b1100111 +
b1100111 $
b1100111 1
b1100111 #
b1100111 0
b1010101 %
b1010101 (
b1010101 -
b1100111 &
b1100111 )
b1100111 .
b11 '
b11 *
b11 /
#15100
b1100011 $
b1100011 1
b1100011 #
b1100011 0
b1100011 !
b1100011 ,
b1100011 "
b1100011 +
b1101000 %
b1101000 (
b1101000 -
b1100011 &
b1100011 )
b1100011 .
#15300
b1111110 !
b1111110 ,
b1101010 "
b1101010 +
b1101010 $
b1101010 1
b1111110 #
b1111110 0
b1101010 %
b1101010 (
b1101010 -
b1111110 &
b1111110 )
b1111110 .
b0 '
b0 *
b0 /
#15500
b101101 !
b101101 ,
b101101 "
b101101 +
b101101 $
b101101 1
b101101 #
b101101 0
b1011000 %
b1011000 (
b1011000 -
b101101 &
b101101 )
b101101 .
b11 '
b11 *
b11 /
#15700
b10100111 $
b10100111 1
b10100111 #
b10100111 0
b10100111 !
b10100111 ,
b10100111 "
b10100111 +
b10101 %
b10101 (
b10101 -
b10100111 &
b10100111 )
b10100111 .
#15900
b10111 !
b10111 ,
b1100101 "
b1100101 +
b1100101 $
b1100101 1
b10111 #
b10111 0
b1100101 %
b1100101 (
b1100101 -
b10111 &
b10111 )
b10111 .
b0 '
b0 *
b0 /
#16100
b10110 !
b10110 ,
b10110 "
b10110 +
b10110 $
b10110 1
b10110 #
b10110 0
b11110000 %
b11110000 (
b11110000 -
b10110 &
b10110 )
b10110 .
b11 '
b11 *
b11 /
#16300
b11100010 $
b11100010 1
b10001101 #
b10001101 0
b11100010 "
b11100010 +
b10001101 !
b10001101 ,
b10001101 %
b10001101 (
b10001101 -
b11100010 &
b11100010 )
b11100010 .
b1 '
b1 *
b1 /
#16500
b10001100 #
b10001100 0
b10010010 $
b10010010 1
b10010010 "
b10010010 +
b10001100 !
b10001100 ,
b10001100 %
b10001100 (
b10001100 -
b10010010 &
b10010010 )
b10010010 .
#16700
b10110100 !
b10110100 ,
b11001111 "
b11001111 +
b11001111 $
b11001111 1
b10110100 #
b10110100 0
b11001111 %
b11001111 (
b11001111 -
b10110100 &
b10110100 )
b10110100 .
b0 '
b0 *
b0 /
#16900
b110101 !
b110101 ,
b110101 "
b110101 +
b110101 $
b110101 1
b110101 #
b110101 0
b10110000 %
b10110000 (
b10110000 -
b110101 &
b110101 )
b110101 .
b11 '
b11 *
b11 /
#17100
b10100 $
b10100 1
b11111111 #
b11111111 0
b10100 "
b10100 +
b11111111 !
b11111111 ,
b11111111 %
b11111111 (
b11111111 -
b10100 &
b10100 )
b10100 .
b1 '
b1 *
b1 /
#17300
b1001011 $
b1001011 1
b1001011 #
b1001011 0
b1001011 !
b1001011 ,
b1001011 "
b1001011 +
b1001011 %
b1001011 (
b1001011 -
b11100101 &
b11100101 )
b11100101 .
b10 '
b10 *
b10 /
#17500
b11000011 !
b11000011 ,
b1011111 "
b1011111 +
b1011111 $
b1011111 1
b11000011 #
b11000011 0
b1011111 %
b1011111 (
b1011111 -
b11000011 &
b11000011 )
b11000011 .
b0 '
b0 *
b0 /
#17700
b110011 !
b110011 ,
b110011 "
b110011 +
b110011 $
b110011 1
b110011 #
b110011 0
b110011 %
b110011 (
b110011 -
b10110000 &
b10110000 )
b10110000 .
b10 '
b10 *
b10 /
#17900
b1110010 !
b1110010 ,
b11111011 "
b11111011 +
b11111011 $
b11111011 1
b1110010 #
b1110010 0
b11111011 %
b11111011 (
b11111011 -
b1110010 &
b1110010 )
b1110010 .
b0 '
b0 *
b0 /
#18100
b10011101 !
b10011101 ,
b10011101 "
b10011101 +
b10011101 $
b10011101 1
b10011101 #
b10011101 0
b10010110 %
b10010110 (
b10010110 -
b10011101 &
b10011101 )
b10011101 .
b11 '
b11 *
b11 /
#18300
b1001111 $
b1001111 1
b10111011 #
b10111011 0
b1001111 "
b1001111 +
b10111011 !
b10111011 ,
b10111011 %
b10111011 (
b10111011 -
b1001111 &
b1001111 )
b1001111 .
b1 '
b1 *
b1 /
#18500
b110110 $
b110110 1
b110110 #
b110110 0
b110110 !
b110110 ,
b110110 "
b110110 +
b110110 %
b110110 (
b110110 -
b11000100 &
b11000100 )
b11000100 .
b10 '
b10 *
b10 /
#18700
b1000000 $
b1000000 1
b1000000 #
b1000000 0
b1000000 !
b1000000 ,
b1000000 "
b1000000 +
b1000000 %
b1000000 (
b1000000 -
b11111 &
b11111 )
b11111 .
#18900
b1011011 $
b1011011 1
b1100000 #
b1100000 0
b1011011 "
b1011011 +
b1100000 !
b1100000 ,
b1100000 %
b1100000 (
b1100000 -
b1011011 &
b1011011 )
b1011011 .
b1 '
b1 *
b1 /
#19100
b1111001 #
b1111001 0
b11001110 $
b11001110 1
b11001110 "
b11001110 +
b1111001 !
b1111001 ,
b1111001 %
b1111001 (
b1111001 -
b11001110 &
b11001110 )
b11001110 .
#19300
b11000111 $
b11000111 1
b11000111 #
b11000111 0
b11000111 !
b11000111 ,
b11000111 "
b11000111 +
b10100011 %
b10100011 (
b10100011 -
b11000111 &
b11000111 )
b11000111 .
b11 '
b11 *
b11 /
#19500
b10110100 $
b10110100 1
b10110100 #
b10110100 0
b10110100 !
b10110100 ,
b10110100 "
b10110100 +
b11111101 %
b11111101 (
b11111101 -
b10110100 &
b10110100 )
b10110100 .
#19700
b11100001 $
b11100001 1
b1001011 #
b1001011 0
b11100001 "
b11100001 +
b1001011 !
b1001011 ,
b1001011 %
b1001011 (
b1001011 -
b11100001 &
b11100001 )
b11100001 .
b1 '
b1 *
b1 /
#19900
b11110 !
b11110 ,
b100010 "
b100010 +
b100010 $
b100010 1
b11110 #
b11110 0
b100010 %
b100010 (
b100010 -
b11110 &
b11110 )
b11110 .
b0 '
b0 *
b0 /
