week05-ex/ex02/isodd_tb.vcd
$date
	Thu Sep 28 07:33:18 2023
$end
$version
	Icarus Verilog
$end
$timescale
	1s
$end
$scope module isodd_tb $end
$var wire 1 ! x $end
$var reg 4 " a [3:0] $end
$scope module uut $end
$var wire 4 # a [3:0] $end
$var wire 1 ! x $end
$upscope $end
$upscope $end
$enddefinitions $end
#0
$dumpvars
b0 #
b0 "
0!
$end
#10
b100 "
b100 #
#20
1!
b1 "
b1 #
#30
b1001 "
b1001 #
#40
b11 "
b11 #
#50
b1101 "
b1101 #
#70
b101 "
b101 #
#80
0!
b10 "
b10 #
#90
1!
b1 "
b1 #
#100
b1101 "
b1101 #
#110
0!
b110 "
b110 #
#120
1!
b1101 "
b1101 #
#140
0!
b1100 "
b1100 #
#150
1!
b1001 "
b1001 #
#160
0!
b110 "
b110 #
#170
1!
b101 "
b101 #
#180
0!
b1010 "
b1010 #
#190
1!
b101 "
b101 #
#200
b111 "
b111 #
#210
0!
b10 "
b10 #
#220
1!
b1111 "
b1111 #
#230
0!
b10 "
b10 #
#240
b1110 "
b1110 #
#250
b1000 "
b1000 #
#260
1!
b101 "
b101 #
#270
0!
b1100 "
b1100 #
#280
1!
b1101 "
b1101 #
#300
b101 "
b101 #
#310
b11 "
b11 #
#320
0!
b1010 "
b1010 #
#330
b0 "
b0 #
#350
b1010 "
b1010 #
#360
1!
b1101 "
b1101 #
#370
0!
b110 "
b110 #
#380
1!
b11 "
b11 #
#390
b1101 "
b1101 #
#400
b11 "
b11 #
#410
b1011 "
b1011 #
#420
b101 "
b101 #
#430
0!
b10 "
b10 #
#440
b1110 "
b1110 #
#450
1!
b1101 "
b1101 #
#460
b1111 "
b1111 #
#470
b11 "
b11 #
#480
0!
b1010 "
b1010 #
#500
b1100 "
b1100 #
#510
b10 "
b10 #
#520
b1010 "
b1010 #
#530
1!
b1 "
b1 #
#540
0!
b1000 "
b1000 #
#560
1!
b1001 "
b1001 #
#570
b1011 "
b1011 #
#580
0!
b110 "
b110 #
#600
b1110 "
b1110 #
#610
b1100 "
b1100 #
#620
b1010 "
b1010 #
#630
1!
b1011 "
b1011 #
#640
b1 "
b1 #
#650
b101 "
b101 #
#660
b1111 "
b1111 #
#670
b1011 "
b1011 #
#680
0!
b1010 "
b1010 #
#690
b1110 "
b1110 #
#700
1!
b101 "
b101 #
#710
b1 "
b1 #
#720
b1001 "
b1001 #
#730
0!
b10 "
b10 #
#740
b1100 "
b1100 #
#750
1!
b1111 "
b1111 #
#770
0!
b1000 "
b1000 #
#780
1!
b111 "
b111 #
#790
b1111 "
b1111 #
#800
0!
b1100 "
b1100 #
#810
1!
b1011 "
b1011 #
#820
b1001 "
b1001 #
#840
0!
b0 "
b0 #
#850
1!
b111 "
b111 #
#860
b1 "
b1 #
#870
0!
b110 "
b110 #
#880
b1100 "
b1100 #
#890
b10 "
b10 #
#900
b1000 "
b1000 #
#910
1!
b111 "
b111 #
#920
b1101 "
b1101 #
#930
0!
b10 "
b10 #
#940
b1110 "
b1110 #
#950
1!
b1101 "
b1101 #
#960
b1001 "
b1001 #
#970
b1111 "
b1111 #
#980
b11 "
b11 #
#990
b101 "
b101 #
#1000
0!
b1000 "
b1000 #
