week06/ex01/wave.vcd
$date
	Wed Oct 25 06:02:40 2023
$end
$version
	Icarus Verilog
$end
$timescale
	1ps
$end
$scope module decode_tb $end
$var wire 4 ! sum [3:0] $end
$var wire 1 " cout $end
$var wire 4 # _sum [3:0] $end
$var wire 1 $ _cout $end
$var reg 4 % a [3:0] $end
$var reg 4 & b [3:0] $end
$var reg 1 ' cin $end
$scope module dut $end
$var wire 4 ( a [3:0] $end
$var wire 4 ) b [3:0] $end
$var wire 1 ' cin $end
$var wire 4 * sum [3:0] $end
$var wire 1 $ cout $end
$var reg 5 + _sum [4:0] $end
$upscope $end
$scope module dut2 $end
$var wire 4 , a [3:0] $end
$var wire 4 - b [3:0] $end
$var wire 1 ' cin $end
$var wire 4 . sum [3:0] $end
$var wire 1 " cout $end
$var reg 5 / _sum [4:0] $end
$upscope $end
$upscope $end
$enddefinitions $end
#0
$dumpvars
bx /
bx .
bx -
bx ,
bx +
bx *
bx )
bx (
x'
bx &
bx %
x$
bx #
x"
bx !
$end
#100000
b1 #
b1 *
1$
b1 !
b1 .
1"
b10001 +
b10001 /
b1001 %
b1001 (
b1001 ,
b10 &
b10 )
b10 -
0'
#200000
b101 #
b101 *
0$
b101 !
b101 .
0"
b101 +
b101 /
b100 %
b100 (
b100 ,
b0 &
b0 )
b0 -
1'
#300000
b0 %
b0 (
b0 ,
b100 &
b100 )
b100 -
#400000
b11 %
b11 (
b11 ,
b1 &
b1 )
b1 -
#500000
1$
1"
b10101 +
b10101 /
b1000 %
b1000 (
b1000 ,
b110 &
b110 )
b110 -
#600000
b1001 #
b1001 *
0$
b1001 !
b1001 .
0"
b1001 +
b1001 /
b10 %
b10 (
b10 ,
#700000
b110 #
b110 *
b110 !
b110 .
b110 +
b110 /
b11 %
b11 (
b11 ,
b10 &
b10 )
b10 -
#800000
b1001 #
b1001 *
b1001 !
b1001 .
b1001 +
b1001 /
b0 %
b0 (
b0 ,
b1001 &
b1001 )
b1001 -
0'
#900000
b1000 %
b1000 (
b1000 ,
b0 &
b0 )
b0 -
1'
#1000000
1$
b101 #
b101 *
1"
b101 !
b101 .
b10101 +
b10101 /
b110 &
b110 )
b110 -
#1100000
b10 #
b10 *
0$
b10 !
b10 .
0"
b10 +
b10 /
b1 %
b1 (
b1 ,
b1 &
b1 )
b1 -
0'
#1200000
1$
b100 #
b100 *
1"
b100 !
b100 .
b10100 +
b10100 /
b1001 %
b1001 (
b1001 ,
b100 &
b100 )
b100 -
1'
#1300000
b10 #
b10 *
b10 !
b10 .
b10010 +
b10010 /
b101 %
b101 (
b101 ,
b110 &
b110 )
b110 -
#1400000
b1000 #
b1000 *
0$
b1000 !
b1000 .
0"
b1000 +
b1000 /
b10 %
b10 (
b10 ,
0'
#1500000
b101 %
b101 (
b101 ,
b10 &
b10 )
b10 -
1'
#1600000
b1001 #
b1001 *
b1001 !
b1001 .
b1001 +
b1001 /
b110 %
b110 (
b110 ,
b11 &
b11 )
b11 -
0'
#1700000
b10 &
b10 )
b10 -
1'
#1800000
1$
b0 #
b0 *
1"
b0 !
b0 .
b10000 +
b10000 /
b101 %
b101 (
b101 ,
b101 &
b101 )
b101 -
0'
#1900000
b1000 #
b1000 *
0$
b1000 !
b1000 .
0"
b1000 +
b1000 /
b101 %
b101 (
b101 ,
b10 &
b10 )
b10 -
1'
#2000000
b101 #
b101 *
b101 !
b101 .
b101 +
b101 /
b11 %
b11 (
b11 ,
b1 &
b1 )
b1 -
#2100000
b1001 #
b1001 *
b1001 !
b1001 .
b1001 +
b1001 /
b0 %
b0 (
b0 ,
b1001 &
b1001 )
b1001 -
0'
#2200000
1$
b0 #
b0 *
1"
b0 !
b0 .
b10000 +
b10000 /
b10 %
b10 (
b10 ,
b111 &
b111 )
b111 -
1'
#2300000
b100 #
b100 *
b100 !
b100 .
b10100 +
b10100 /
b101 %
b101 (
b101 ,
b1001 &
b1001 )
b1001 -
0'
#2400000
b11 #
b11 *
b11 !
b11 .
b10011 +
b10011 /
b110 %
b110 (
b110 ,
b111 &
b111 )
b111 -
#2500000
b1 #
b1 *
b1 !
b1 .
b10001 +
b10001 /
b111 %
b111 (
b111 ,
b100 &
b100 )
b100 -
#2600000
b1001 #
b1001 *
0$
b1001 !
b1001 .
0"
b1001 +
b1001 /
b110 %
b110 (
b110 ,
b10 &
b10 )
b10 -
1'
#2700000
b100 #
b100 *
b100 !
b100 .
b100 +
b100 /
b0 %
b0 (
b0 ,
b100 &
b100 )
b100 -
0'
#2800000
1$
b0 #
b0 *
1"
b0 !
b0 .
b10000 +
b10000 /
b101 %
b101 (
b101 ,
b100 &
b100 )
b100 -
1'
#2900000
b1000 #
b1000 *
0$
b1000 !
b1000 .
0"
b1000 +
b1000 /
b1 %
b1 (
b1 ,
b110 &
b110 )
b110 -
#3000000
b110 #
b110 *
b110 !
b110 .
b110 +
b110 /
b11 %
b11 (
b11 ,
b10 &
b10 )
b10 -
#3100000
b101 #
b101 *
b101 !
b101 .
b101 +
b101 /
b1 &
b1 )
b1 -
#3200000
1$
b11 #
b11 *
1"
b11 !
b11 .
b10011 +
b10011 /
b1000 %
b1000 (
b1000 ,
b101 &
b101 )
b101 -
0'
#3300000
b100 #
b100 *
0$
b100 !
b100 .
0"
b100 +
b100 /
b100 %
b100 (
b100 ,
b0 &
b0 )
b0 -
#3400000
b1001 #
b1001 *
b1001 !
b1001 .
b1001 +
b1001 /
b1001 %
b1001 (
b1001 ,
#3500000
b1000 #
b1000 *
b1000 !
b1000 .
b1000 +
b1000 /
b11 %
b11 (
b11 ,
b101 &
b101 )
b101 -
#3600000
b1001 #
b1001 *
b1001 !
b1001 .
b1001 +
b1001 /
b100 %
b100 (
b100 ,
b100 &
b100 )
b100 -
1'
#3700000
b101 #
b101 *
b101 !
b101 .
b101 +
b101 /
b1 &
b1 )
b1 -
0'
#3800000
1$
b0 #
b0 *
1"
b0 !
b0 .
b10000 +
b10000 /
b0 %
b0 (
b0 ,
b1001 &
b1001 )
b1001 -
1'
#3900000
b111 #
b111 *
0$
b111 !
b111 .
0"
b111 +
b111 /
b110 &
b110 )
b110 -
#4000000
1$
b10 #
b10 *
1"
b10 !
b10 .
b10010 +
b10010 /
b10 %
b10 (
b10 ,
b1001 &
b1001 )
b1001 -
#4100000
b111 #
b111 *
0$
b111 !
b111 .
0"
b111 +
b111 /
b1 %
b1 (
b1 ,
b101 &
b101 )
b101 -
#4200000
b110 %
b110 (
b110 ,
b0 &
b0 )
b0 -
#4300000
b1 #
b1 *
b1 !
b1 .
b1 +
b1 /
b0 %
b0 (
b0 ,
b1 &
b1 )
b1 -
0'
#4400000
1$
b10 #
b10 *
1"
b10 !
b10 .
b10010 +
b10010 /
b101 %
b101 (
b101 ,
b111 &
b111 )
b111 -
#4500000
b11 #
b11 *
b11 !
b11 .
b10011 +
b10011 /
b1000 %
b1000 (
b1000 ,
b100 &
b100 )
b100 -
1'
#4600000
b100 #
b100 *
b100 !
b100 .
b10100 +
b10100 /
b110 %
b110 (
b110 ,
b111 &
b111 )
b111 -
#4700000
b1 #
b1 *
b1 !
b1 .
b10001 +
b10001 /
b1001 %
b1001 (
b1001 ,
b1 &
b1 )
b1 -
#4800000
b11 #
b11 *
b11 !
b11 .
b10011 +
b10011 /
b1000 %
b1000 (
b1000 ,
b101 &
b101 )
b101 -
0'
#4900000
b1 #
b1 *
b1 !
b1 .
b10001 +
b10001 /
b110 %
b110 (
b110 ,
#5000000
b101 #
b101 *
0$
b101 !
b101 .
0"
b101 +
b101 /
b1 %
b1 (
b1 ,
b100 &
b100 )
b100 -
#5100000
1$
b100 #
b100 *
1"
b100 !
b100 .
b10100 +
b10100 /
b101 %
b101 (
b101 ,
b1001 &
b1001 )
b1001 -
#5200000
b111 #
b111 *
0$
b111 !
b111 .
0"
b111 +
b111 /
b10 %
b10 (
b10 ,
b101 &
b101 )
b101 -
#5300000
b1 #
b1 *
b1 !
b1 .
b1 +
b1 /
b0 %
b0 (
b0 ,
b0 &
b0 )
b0 -
1'
#5400000
b1000 #
b1000 *
b1000 !
b1000 .
b1000 +
b1000 /
b110 %
b110 (
b110 ,
b10 &
b10 )
b10 -
0'
#5500000
b11 #
b11 *
b11 !
b11 .
b11 +
b11 /
b1 %
b1 (
b1 ,
b10 &
b10 )
b10 -
#5600000
b1001 #
b1001 *
b1001 !
b1001 .
b1001 +
b1001 /
b100 %
b100 (
b100 ,
b100 &
b100 )
b100 -
1'
#5700000
1$
b1 #
b1 *
1"
b1 !
b1 .
b10001 +
b10001 /
b101 %
b101 (
b101 ,
b101 &
b101 )
b101 -
#5800000
b100 #
b100 *
0$
b100 !
b100 .
0"
b100 +
b100 /
b11 %
b11 (
b11 ,
b1 &
b1 )
b1 -
0'
#5900000
b111 #
b111 *
b111 !
b111 .
b111 +
b111 /
b100 %
b100 (
b100 ,
b11 &
b11 )
b11 -
#6000000
1$
b0 #
b0 *
1"
b0 !
b0 .
b10000 +
b10000 /
b11 %
b11 (
b11 ,
b111 &
b111 )
b111 -
#6100000
b1001 #
b1001 *
0$
b1001 !
b1001 .
0"
b1001 +
b1001 /
b101 %
b101 (
b101 ,
b100 &
b100 )
b100 -
#6200000
1$
b100 #
b100 *
1"
b100 !
b100 .
b10100 +
b10100 /
b1001 %
b1001 (
b1001 ,
b101 &
b101 )
b101 -
#6300000
b110 #
b110 *
0$
b110 !
b110 .
0"
b110 +
b110 /
b0 %
b0 (
b0 ,
1'
#6400000
1$
b10 #
b10 *
1"
b10 !
b10 .
b10010 +
b10010 /
b11 %
b11 (
b11 ,
b1000 &
b1000 )
b1000 -
#6500000
b101 #
b101 *
0$
b101 !
b101 .
0"
b101 +
b101 /
b10 %
b10 (
b10 ,
b10 &
b10 )
b10 -
#6600000
b1000 #
b1000 *
b1000 !
b1000 .
b1000 +
b1000 /
b0 %
b0 (
b0 ,
b111 &
b111 )
b111 -
#6700000
b101 #
b101 *
b101 !
b101 .
b101 +
b101 /
b1 %
b1 (
b1 ,
b11 &
b11 )
b11 -
#6800000
1$
b10 #
b10 *
1"
b10 !
b10 .
b10010 +
b10010 /
b1001 %
b1001 (
b1001 ,
b11 &
b11 )
b11 -
0'
#6900000
b1000 #
b1000 *
0$
b1000 !
b1000 .
0"
b1000 +
b1000 /
b11 %
b11 (
b11 ,
b101 &
b101 )
b101 -
#7000000
b1001 #
b1001 *
b1001 !
b1001 .
b1001 +
b1001 /
b1000 %
b1000 (
b1000 ,
b0 &
b0 )
b0 -
1'
#7100000
1$
b100 #
b100 *
1"
b100 !
b100 .
b10100 +
b10100 /
b101 %
b101 (
b101 ,
b1000 &
b1000 )
b1000 -
#7200000
b111 #
b111 *
0$
b111 !
b111 .
0"
b111 +
b111 /
b100 %
b100 (
b100 ,
b10 &
b10 )
b10 -
#7300000
b10 #
b10 *
b10 !
b10 .
b10 +
b10 /
b1 %
b1 (
b1 ,
b1 &
b1 )
b1 -
0'
#7400000
b110 #
b110 *
b110 !
b110 .
b110 +
b110 /
b0 %
b0 (
b0 ,
b110 &
b110 )
b110 -
#7500000
b1000 #
b1000 *
b1000 !
b1000 .
b1000 +
b1000 /
b10 %
b10 (
b10 ,
b101 &
b101 )
b101 -
1'
#7600000
1$
b0 #
b0 *
1"
b0 !
b0 .
b10000 +
b10000 /
b10 %
b10 (
b10 ,
b111 &
b111 )
b111 -
#7700000
b111 #
b111 *
0$
b111 !
b111 .
0"
b111 +
b111 /
b101 %
b101 (
b101 ,
b10 &
b10 )
b10 -
0'
#7800000
b1 &
b1 )
b1 -
1'
#7900000
1$
b0 #
b0 *
1"
b0 !
b0 .
b10000 +
b10000 /
b100 %
b100 (
b100 ,
b101 &
b101 )
b101 -
#8000000
b110 #
b110 *
0$
b110 !
b110 .
0"
b110 +
b110 /
b10 %
b10 (
b10 ,
b100 &
b100 )
b100 -
0'
#8100000
b11 &
b11 )
b11 -
1'
#8200000
b111 #
b111 *
b111 !
b111 .
b111 +
b111 /
b10 %
b10 (
b10 ,
b100 &
b100 )
b100 -
#8400000
1$
b100 #
b100 *
1"
b100 !
b100 .
b10100 +
b10100 /
b110 %
b110 (
b110 ,
b1000 &
b1000 )
b1000 -
0'
#8500000
b1000 #
b1000 *
0$
b1000 !
b1000 .
0"
b1000 +
b1000 /
b1 &
b1 )
b1 -
1'
#8600000
1$
b1 #
b1 *
1"
b1 !
b1 .
b10001 +
b10001 /
b10 %
b10 (
b10 ,
b1000 &
b1000 )
b1000 -
#8700000
b11 #
b11 *
0$
b11 !
b11 .
0"
b11 +
b11 /
b10 %
b10 (
b10 ,
b1 &
b1 )
b1 -
0'
#8800000
1$
b100 #
b100 *
1"
b100 !
b100 .
b10100 +
b10100 /
b1000 %
b1000 (
b1000 ,
b110 &
b110 )
b110 -
#8900000
b111 #
b111 *
0$
b111 !
b111 .
0"
b111 +
b111 /
b110 %
b110 (
b110 ,
b1 &
b1 )
b1 -
#9000000
b1000 #
b1000 *
b1000 !
b1000 .
b1000 +
b1000 /
b100 %
b100 (
b100 ,
b100 &
b100 )
b100 -
#9100000
b101 #
b101 *
b101 !
b101 .
b101 +
b101 /
b11 %
b11 (
b11 ,
b1 &
b1 )
b1 -
1'
#9200000
1$
b100 #
b100 *
1"
b100 !
b100 .
b10100 +
b10100 /
b1001 %
b1001 (
b1001 ,
b100 &
b100 )
b100 -
#9300000
b111 #
b111 *
b111 !
b111 .
b10111 +
b10111 /
b1000 %
b1000 (
b1000 ,
b1001 &
b1001 )
b1001 -
0'
#9400000
b1000 #
b1000 *
0$
b1000 !
b1000 .
0"
b1000 +
b1000 /
b11 %
b11 (
b11 ,
b101 &
b101 )
b101 -
#9500000
b1 %
b1 (
b1 ,
b110 &
b110 )
b110 -
1'
#9600000
1$
b10 #
b10 *
1"
b10 !
b10 .
b10010 +
b10010 /
b1001 %
b1001 (
b1001 ,
b10 &
b10 )
b10 -
#9700000
b100 #
b100 *
b100 !
b100 .
b10100 +
b10100 /
b1000 %
b1000 (
b1000 ,
b101 &
b101 )
b101 -
#9800000
b110 #
b110 *
b110 !
b110 .
b10110 +
b10110 /
b110 %
b110 (
b110 ,
b1001 &
b1001 )
b1001 -
#9900000
b101 #
b101 *
0$
b101 !
b101 .
0"
b101 +
b101 /
b10 %
b10 (
b10 ,
b10 &
b10 )
b10 -
#10000000
b11 %
b11 (
b11 ,
b10 &
b10 )
b10 -
0'
