week05/ex03/wave.vcd
$date
	Wed Oct 18 08:08:59 2023
$end
$version
	Icarus Verilog
$end
$timescale
	1s
$end
$scope module rpfadd8_tb $end
$var wire 8 ! sum [7:0] $end
$var wire 1 " cout $end
$var wire 8 # _sum [7:0] $end
$var wire 1 $ _cout $end
$var reg 8 % a [7:0] $end
$var reg 8 & b [7:0] $end
$var reg 1 ' cin $end
$scope module u0 $end
$var wire 8 ( a [7:0] $end
$var wire 8 ) b [7:0] $end
$var wire 1 ' cin $end
$var wire 8 * sum [7:0] $end
$var wire 1 " cout $end
$var wire 8 + carry_out [7:0] $end
$scope module u0 $end
$var wire 1 , a $end
$var wire 1 - b $end
$var wire 1 ' cin $end
$var wire 1 . sum $end
$var wire 1 / cout $end
$upscope $end
$scope module u1 $end
$var wire 1 0 a $end
$var wire 1 1 b $end
$var wire 1 2 cin $end
$var wire 1 3 sum $end
$var wire 1 4 cout $end
$upscope $end
$scope module u2 $end
$var wire 1 5 a $end
$var wire 1 6 b $end
$var wire 1 7 cin $end
$var wire 1 8 sum $end
$var wire 1 9 cout $end
$upscope $end
$scope module u3 $end
$var wire 1 : a $end
$var wire 1 ; b $end
$var wire 1 < cin $end
$var wire 1 = sum $end
$var wire 1 > cout $end
$upscope $end
$scope module u4 $end
$var wire 1 ? a $end
$var wire 1 @ b $end
$var wire 1 A cin $end
$var wire 1 B sum $end
$var wire 1 C cout $end
$upscope $end
$scope module u5 $end
$var wire 1 D a $end
$var wire 1 E b $end
$var wire 1 F cin $end
$var wire 1 G sum $end
$var wire 1 H cout $end
$upscope $end
$scope module u6 $end
$var wire 1 I a $end
$var wire 1 J b $end
$var wire 1 K cin $end
$var wire 1 L sum $end
$var wire 1 M cout $end
$upscope $end
$scope module u7 $end
$var wire 1 N a $end
$var wire 1 O b $end
$var wire 1 P cin $end
$var wire 1 Q sum $end
$var wire 1 " cout $end
$upscope $end
$upscope $end
$scope module u1 $end
$var wire 8 R a [7:0] $end
$var wire 8 S b [7:0] $end
$var wire 1 ' cin $end
$var wire 8 T sum [7:0] $end
$var wire 1 $ cout $end
$var wire 8 U carry [7:0] $end
$scope begin gen_loop[1] $end
$scope module u $end
$var wire 1 V a $end
$var wire 1 W b $end
$var wire 1 X cin $end
$var wire 1 Y sum $end
$var wire 1 Z cout $end
$upscope $end
$upscope $end
$scope begin gen_loop[2] $end
$scope module u $end
$var wire 1 [ a $end
$var wire 1 \ b $end
$var wire 1 ] cin $end
$var wire 1 ^ sum $end
$var wire 1 _ cout $end
$upscope $end
$upscope $end
$scope begin gen_loop[3] $end
$scope module u $end
$var wire 1 ` a $end
$var wire 1 a b $end
$var wire 1 b cin $end
$var wire 1 c sum $end
$var wire 1 d cout $end
$upscope $end
$upscope $end
$scope begin gen_loop[4] $end
$scope module u $end
$var wire 1 e a $end
$var wire 1 f b $end
$var wire 1 g cin $end
$var wire 1 h sum $end
$var wire 1 i cout $end
$upscope $end
$upscope $end
$scope begin gen_loop[5] $end
$scope module u $end
$var wire 1 j a $end
$var wire 1 k b $end
$var wire 1 l cin $end
$var wire 1 m sum $end
$var wire 1 n cout $end
$upscope $end
$upscope $end
$scope begin gen_loop[6] $end
$scope module u $end
$var wire 1 o a $end
$var wire 1 p b $end
$var wire 1 q cin $end
$var wire 1 r sum $end
$var wire 1 s cout $end
$upscope $end
$upscope $end
$scope begin gen_loop[7] $end
$scope module u $end
$var wire 1 t a $end
$var wire 1 u b $end
$var wire 1 v cin $end
$var wire 1 w sum $end
$var wire 1 x cout $end
$upscope $end
$upscope $end
$scope module u0 $end
$var wire 1 y a $end
$var wire 1 z b $end
$var wire 1 ' cin $end
$var wire 1 { sum $end
$var wire 1 | cout $end
$upscope $end
$upscope $end
$upscope $end
$enddefinitions $end
#0
$dumpvars
0|
0{
0z
0y
0x
0w
0v
0u
0t
0s
0r
0q
0p
0o
0n
0m
0l
0k
0j
0i
0h
0g
0f
0e
0d
0c
0b
0a
0`
0_
0^
0]
0\
0[
0Z
0Y
0X
0W
0V
b0 U
b0 T
b0 S
b0 R
0Q
0P
0O
0N
0M
0L
0K
0J
0I
0H
0G
0F
0E
0D
0C
0B
0A
0@
0?
0>
0=
0<
0;
0:
09
08
07
06
05
04
03
02
01
00
0/
0.
0-
0,
bz0000000 +
b0 *
b0 )
b0 (
0'
b0 &
b0 %
0$
b0 #
0"
b0 !
$end
#100
18
1G
1^
1m
17
1F
1]
1l
1$
14
b101100 !
b101100 *
1=
bz0010010 +
1C
1"
1Z
b101100 #
b101100 T
1c
1i
b10010010 U
1x
10
1:
1?
1N
1V
1`
1e
1t
11
1@
1O
1W
1f
1u
b10011010 %
b10011010 (
b10011010 R
b10010010 &
b10010010 )
b10010010 S
#300
1B
1h
1A
0P
1g
0v
0=
1>
0M
0c
1d
0s
12
1<
0K
1b
0q
1X
17
0F
1]
0l
0$
1/
08
19
1G
0H
0^
1_
1m
0n
1|
03
14
bz0001111 +
0C
1L
1Q
0"
0Y
1Z
0i
1r
1w
b1111 U
0x
1,
15
0?
1D
1[
0e
1j
1y
01
0@
1J
0O
0W
0f
1p
0u
b11110000 !
b11110000 *
0.
b11110000 #
b11110000 T
0{
b10101111 %
b10101111 (
b10101111 R
b1000000 &
b1000000 )
b1000000 S
1'
#500
b1110000 !
b1110000 *
0Q
b1110000 #
b1110000 T
0w
05
1I
0N
0[
1o
0t
16
0J
1\
0p
b1101011 %
b1101011 (
b1101011 R
b100 &
b100 )
b100 S
#700
0A
0g
1=
0>
1c
0d
0<
0F
1K
0b
0l
1q
1L
1r
1.
18
09
1B
0C
b1011101 !
b1011101 *
0G
bz0100011 +
1H
1^
0_
1h
0i
0m
b100011 U
1n
b1011101 #
b1011101 T
1{
0I
0o
1-
06
1@
1E
0\
1f
1k
1z
b101011 %
b101011 (
b101011 R
b110001 &
b110001 )
b110001 S
#900
1F
1l
0B
1C
0h
1i
1A
1g
0=
1>
1L
0c
1d
1r
1$
1<
1K
1b
1q
1"
1x
0.
19
b1000100 !
b1000100 *
0G
bz0111111 +
1H
1_
0m
b10111111 U
1n
b1000100 #
b1000100 T
0{
00
15
1?
1N
0V
1[
1e
1t
0-
11
16
0@
0E
1O
1W
1\
0f
0k
1u
0z
b10111101 %
b10111101 (
b10111101 R
b10000110 &
b10000110 )
b10000110 S
#1100
08
0^
07
0]
13
04
0L
0r
1Y
0Z
1Q
1w
02
0F
0K
0l
0q
0X
1P
1v
1.
0/
1B
0C
b10010011 !
b10010011 *
0G
0H
1h
0i
0m
0n
b10010011 #
b10010011 T
1{
0|
bz1001100 +
1M
b11001100 U
1s
0,
0?
0D
1I
0e
0j
1o
0y
1J
1p
b11001100 %
b11001100 (
b11001100 R
b11000110 &
b11000110 )
b11000110 S
#1300
0K
0q
18
1^
0H
0Q
0n
0w
17
0A
1]
0g
0$
0<
0F
0P
0b
0l
0v
03
14
0=
0>
0"
0Y
1Z
0c
0d
0x
09
1B
0C
1G
b1110101 !
b1110101 *
1L
bz0000010 +
0M
0_
1h
0i
1m
b1110101 #
b1110101 T
1r
b10 U
0s
10
05
0:
0N
1V
0[
0`
0t
06
1@
1E
0J
0O
0\
1f
1k
0p
0u
b1000010 %
b1000010 (
b1000010 R
b110010 &
b110010 )
b110010 S
#1500
13
1Y
08
0^
12
1A
1g
1X
07
0]
1/
1>
0L
1Q
1d
0r
1w
1|
bz0001001 +
04
1B
b1001 U
0Z
1h
1,
00
1:
1D
0I
1N
0V
1`
1j
0o
1t
1y
1-
01
1;
0@
0E
0W
1a
0f
0k
1z
b10110010 !
b10110010 *
0.
b10110010 #
b10110010 T
0{
b10101001 %
b10101001 (
b10101001 R
b1001 &
b1001 )
b1001 S
0'
#1700
0P
0v
0M
0s
0K
0q
1G
0H
1m
0n
0F
0l
0A
0g
1$
1B
0C
1L
1h
0i
1r
bz0000001 +
0>
0Q
1"
0d
0w
b10000001 U
1x
0:
1?
1I
0`
1e
1o
0-
0;
1O
0a
1u
0z
b1110010 !
b1110010 *
0.
b1110010 #
b1110010 T
0{
b11110001 %
b11110001 (
b11110001 R
b10000000 &
b10000000 )
b10000000 S
1'
#1900
03
1=
1c
0Y
18
1^
02
1<
1b
0X
17
1]
1.
0/
19
b1101101 !
b1101101 *
0B
1_
0h
b1101101 #
b1101101 T
1{
0|
bz0000110 +
14
b10000110 U
1Z
0,
10
15
0?
1V
1[
0e
0y
11
16
1W
1\
b11100110 %
b11100110 (
b11100110 R
b10000110 &
b10000110 )
b10000110 S
#2100
1Q
1w
1P
1v
08
0=
0^
0c
1B
0L
1M
1h
0r
1s
07
0<
1F
0]
0b
1l
1A
1K
1g
1q
13
04
09
1C
1Y
0Z
0_
1i
1>
1G
bz1111000 +
1H
1d
1m
b11111000 U
1n
00
05
1:
1?
0V
0[
1`
1e
1-
06
1;
1@
1E
0\
1a
1f
1k
1z
b10110011 !
b10110011 *
1.
b10110011 #
b10110011 T
1{
b11111000 %
b11111000 (
b11111000 R
b10111011 &
b10111011 )
b10111011 S
0'
#2300
1Q
1w
1P
1v
0L
1M
0r
1s
1K
1q
1H
1n
1F
1l
18
1C
1^
1i
03
0Y
17
1<
1A
1]
1b
1g
14
19
0=
1>
0B
1Z
1_
0c
1d
0h
0G
0m
02
0X
10
15
0:
0?
1V
1[
0`
0e
0-
16
0E
1\
0k
0z
b10000101 !
b10000101 *
1.
bz1111110 +
0/
b10000101 #
b10000101 T
1{
b11111110 U
0|
b11100110 %
b11100110 (
b11100110 R
b10011110 &
b10011110 )
b10011110 S
1'
#2500
13
1Y
12
1X
0.
bz1111111 +
1/
08
0Q
0^
0w
0{
b11111111 U
1|
b100010 !
b100010 *
1G
b100010 #
b100010 T
1m
1,
05
1:
0I
0N
0[
1`
0o
0t
1y
0;
1E
1J
0a
1k
1p
b101011 %
b101011 (
b101011 R
b11110110 &
b11110110 )
b11110110 S
#2700
03
0Y
1L
1Q
1r
1w
0G
0m
02
0X
1?
1I
1N
1e
1o
1t
0@
0E
0f
0k
b11000001 !
b11000001 *
1.
bz1111110 +
0/
b11000001 #
b11000001 T
1{
b11111110 U
0|
b11111011 %
b11111011 (
b11111011 R
b11000110 &
b11000110 )
b11000110 S
0'
#2900
07
0]
08
0^
03
04
1B
1G
0Y
0Z
1h
1m
02
0X
0,
00
15
0:
0V
1[
0`
0y
01
1;
1@
1E
0W
1a
1f
1k
b11110001 !
b11110001 *
1.
bz1111100 +
0/
b11110001 #
b11110001 T
1{
b11111100 U
0|
b11110100 %
b11110100 (
b11110100 R
b11111100 &
b11111100 )
b11111100 S
1'
#3100
0$
0"
0x
0P
0v
0M
0s
0K
0q
0H
0n
0F
0l
18
1^
0C
0i
17
1]
0<
0A
0b
0g
14
1G
1L
1Z
1m
1r
09
0=
bz0000010 +
0>
1B
1Q
0_
0c
b10 U
0d
1h
1w
10
05
0D
0I
1V
0[
0j
0o
1-
11
06
0;
0@
0O
1W
0\
0a
0f
0u
1z
b11110101 !
b11110101 *
1.
b11110101 #
b11110101 T
1{
b10010010 %
b10010010 (
b10010010 R
b1100011 &
b1100011 )
b1100011 S
0'
#3300
1$
0Q
1"
0w
1x
1P
1v
03
0Y
0B
0L
1M
0h
0r
1s
02
0X
0?
1I
0e
1o
0-
0z
b100101 !
b100101 *
1.
bz1000010 +
0/
b100101 #
b100101 T
1{
b11000010 U
0|
b11000010 %
b11000010 (
b11000010 R
b1100010 &
b1100010 )
b1100010 S
1'
#3500
0L
0r
0K
0q
1G
0H
1m
0n
0F
0l
0C
0i
0A
0g
13
1Y
0>
0d
12
1X
07
0<
0]
0b
1/
1=
1c
1|
04
18
bz1000001 +
09
1B
0Z
1^
b11000001 U
0_
1h
1,
00
1:
1D
0V
1`
1j
1y
1-
01
16
1@
0E
0W
1\
1f
0k
1z
b111110 !
b111110 *
0.
b111110 #
b111110 T
0{
b11101001 %
b11101001 (
b11101001 R
b1010101 &
b1010101 )
b1010101 S
0'
#3700
1L
1r
1F
1l
17
1K
1]
1q
0B
1C
0h
1i
14
18
1G
bz1110011 +
1H
1Q
1Z
1^
1m
b11110011 U
1n
1w
10
1?
1V
1e
0-
11
06
1E
1O
1W
0\
1k
1u
0z
b11101110 !
b11101110 *
0.
b11101110 #
b11101110 T
0{
b11111011 %
b11111011 (
b11111011 R
b11110010 &
b11110010 )
b11110010 S
1'
#3900
0Q
0w
1B
1h
0P
0v
0$
1A
1g
03
0M
0"
0Y
0s
0x
1.
b1110101 !
b1110101 *
0=
bz0111011 +
1>
0c
b111011 U
1d
b1110101 #
b1110101 T
1{
00
0I
0N
0V
0o
0t
1-
1;
0J
0O
1a
0p
0u
1z
b111001 %
b111001 (
b111001 R
b111011 &
b111011 )
b111011 S
#4100
0K
0q
0H
0Q
0n
0w
0F
0P
0l
0v
0C
1L
bz0001011 +
0M
0i
1r
b1011 U
0s
1G
1m
10
0?
1I
1V
0e
1o
01
0@
0E
0W
0f
0k
b1110100 !
b1110100 *
0.
b1110100 #
b1110100 T
0{
b1101011 %
b1101011 (
b1101011 R
b1001 &
b1001 )
b1001 S
0'
#4300
1$
1B
1"
1h
1x
1<
1A
1P
1b
1g
1v
19
0=
1>
0L
bz1001111 +
1M
0Q
1_
0c
1d
0r
b11001111 U
1s
0w
00
15
0V
1[
11
16
0;
1J
1O
1W
1\
0a
1p
1u
b110101 !
b110101 *
1.
b110101 #
b110101 T
1{
b1101101 %
b1101101 (
b1101101 R
b11000111 &
b11000111 )
b11000111 S
1'
#4500
0B
0h
0A
0g
1=
0>
1c
0d
1$
0<
0b
0Q
1"
0w
1x
09
0_
02
1P
1v
0X
07
1F
1K
0]
1l
1q
0/
0L
1M
0r
1s
0|
03
04
18
1C
1G
bz1110000 +
1H
0Y
0Z
1^
1i
1m
b11110000 U
1n
0,
0:
1?
0I
0`
1e
0o
0y
01
06
1;
1@
1E
0W
0\
1a
1f
1k
b101101 !
b101101 *
1.
b101101 #
b101101 T
1{
b110100 %
b110100 (
b110100 R
b11111001 &
b11111001 )
b11111001 S
0'
#4700
1B
1h
1A
1g
0=
1>
0c
1d
1<
1b
0K
0q
13
08
19
0^
1_
1Y
0H
0n
12
17
1]
1X
0F
0l
0$
0.
1/
14
1G
0L
1Z
1m
0r
0{
1|
bz1001111 +
0C
b10110010 !
b10110010 *
1Q
0"
0i
b10110010 #
b10110010 T
1w
b1001111 U
0x
1,
10
05
1:
0?
0D
1I
1V
0[
1`
0e
0j
1o
1y
11
16
0;
0@
0O
1W
1\
0a
0f
0u
b1001011 %
b1001011 (
b1001011 R
b1100111 &
b1100111 )
b1100111 S
#4900
1Q
1w
03
0Y
07
1K
1P
0]
1q
1v
02
1F
1l
0X
04
08
1G
1H
0L
1M
0Z
0^
1m
1n
0r
1s
b10110001 !
b10110001 *
1.
0/
bz1111100 +
1C
1i
b10110001 #
b10110001 T
1{
b1111100 U
0|
00
15
1?
1D
0I
0V
1[
1e
1j
0o
0-
01
1@
0W
1f
0z
b111101 %
b111101 (
b111101 R
b1110100 &
b1110100 )
b1110100 S
#5100
0B
0G
0h
0m
17
0A
0F
1]
0g
0l
1<
1b
14
1=
0>
0C
1Z
1c
0d
0i
13
08
19
1Y
0^
1_
12
1X
10
0:
0?
1V
0`
0e
11
06
0@
1W
0\
0f
b10001010 !
b10001010 *
0.
bz1100111 +
1/
b10001010 #
b10001010 T
0{
b1100111 U
1|
b100111 %
b100111 (
b100111 R
b1100010 &
b1100010 )
b1100010 S
1'
#5300
1B
1h
07
0]
1A
0P
1g
0v
0$
04
0Z
08
0=
1>
1L
0M
1Q
0"
0^
0c
1d
1r
0s
1w
0x
02
0X
0,
00
0V
0y
16
1;
0J
1O
1\
1a
0p
1u
b11010010 !
b11010010 *
0.
bz0101100 +
0/
b11010010 #
b11010010 T
0{
b101100 U
0|
b100100 %
b100100 (
b100100 R
b10101110 &
b10101110 )
b10101110 S
0'
#5500
1G
1m
1F
0K
0P
1l
0q
0v
1C
0H
1L
bz0011100 +
0M
0Q
1i
0n
1r
b11100 U
0s
0w
1?
0D
1e
0j
1@
0E
1J
0O
1f
0k
1p
0u
b1110011 !
b1110011 *
1.
b1110011 #
b1110011 T
1{
b10100 %
b10100 (
b10100 R
b1011110 &
b1011110 )
b1011110 S
1'
#5700
1K
1q
0B
0G
bz0111100 +
1H
1Q
0h
0m
b111100 U
1n
1w
b11000011 !
b11000011 *
1L
b11000011 #
b11000011 T
1r
1:
0?
1D
1N
1`
0e
1j
1t
0;
0J
0a
0p
b10101100 %
b10101100 (
b10101100 R
b10110 &
b10110 )
b10110 S
#5900
18
1^
12
17
0A
1]
0g
1X
0<
0b
0.
1/
13
14
0=
0>
b11000110 !
b11000110 *
0B
1Y
1Z
0c
0d
0h
b11000110 #
b11000110 T
0{
1|
bz0110011 +
09
b110011 U
0_
1,
10
05
0:
1?
0D
1V
0[
0`
1e
0j
1y
06
1E
0\
1k
b10010011 %
b10010011 (
b10010011 R
b110010 &
b110010 )
b110010 S
#6100
08
0^
07
0]
bz0110001 +
04
1G
b110001 U
0Z
1m
b11100011 !
b11100011 *
1.
b11100011 #
b11100011 T
1{
00
1D
0V
1j
1-
01
0W
1z
b10110001 %
b10110001 (
b10110001 R
b110001 &
b110001 )
b110001 S
#6300
1=
1c
1<
1b
19
1_
0G
0m
17
0K
0P
1]
0q
0v
0F
0l
1$
03
14
0H
1L
0M
0Y
1Z
0n
1r
0s
08
bz0000111 +
0C
0Q
1"
0^
0i
0w
b10000111 U
1x
10
0?
0D
1I
1V
0e
0j
1o
16
0@
0E
1O
1\
0f
0k
1u
b1001000 !
b1001000 *
0.
b1001000 #
b1001000 T
0{
b11000011 %
b11000011 (
b11000011 R
b10000101 &
b10000101 )
b10000101 S
0'
#6500
0=
0c
07
0]
02
0<
0b
0$
0X
03
04
1B
0Y
0Z
1h
1.
0/
08
bz0000000 +
09
b11010001 !
b11010001 *
1Q
0"
0^
0_
1w
0x
b11010001 #
b11010001 T
1{
b0 U
0|
00
1?
0I
0V
1e
0o
0-
06
1J
0O
0\
1p
0u
0z
b10010001 %
b10010001 (
b10010001 R
b1000000 &
b1000000 )
b1000000 S
#6700
1G
1m
1F
1l
0.
0{
0B
bz0010000 +
1C
b10100000 !
b10100000 *
0L
0h
b10000 U
1i
b10100000 #
b10100000 T
0r
0,
0N
0t
0y
1@
0J
1O
1f
0p
1u
b10000 %
b10000 (
b10000 R
b10010000 &
b10010000 )
b10010000 S
#6900
0$
1Q
0"
1w
0x
0P
0v
0M
0s
0F
0K
0l
0q
13
1B
0C
1G
bz0000000 +
0H
1Y
1h
0i
1m
b0 U
0n
1.
18
b11110111 !
b11110111 *
1L
1^
1r
b11110111 #
b11110111 T
1{
10
0?
1D
1V
0e
1j
1-
16
1J
1\
1p
1z
b100010 %
b100010 (
b100010 R
b11010101 &
b11010101 )
b11010101 S
#7100
1A
1g
1>
1d
03
0Y
1<
1P
1b
1v
17
1]
18
19
0L
1M
1^
1_
0r
1s
14
0=
1B
1Q
1Z
0c
1h
1w
02
0X
15
1I
1[
1o
0-
11
1;
0@
0O
1W
1a
0f
0u
0z
b10110101 !
b10110101 *
1.
bz1001110 +
0/
b10110101 #
b10110101 T
1{
b1001110 U
0|
b1100110 %
b1100110 (
b1100110 R
b1001110 &
b1001110 )
b1001110 S
1'
#7300
13
0Q
0w
1Y
12
1F
0P
1l
0v
1X
1/
1=
0B
1C
1G
1L
bz0011111 +
0M
1c
0h
1i
1m
1r
0s
b11111 U
1|
08
0^
1,
1:
1?
0D
0I
1`
1e
0j
0o
1y
1-
06
0\
1z
b1101010 !
b1101010 *
0.
b1101010 #
b1101010 T
0{
b11111 %
b11111 (
b11111 R
b1001011 &
b1001011 )
b1001011 S
0'
#7500
0=
0c
0<
0b
18
09
1^
0_
07
0]
bz0011001 +
04
1Q
b11001 U
0Z
1w
0,
00
1I
1N
0V
1o
1t
0y
01
0J
0W
0p
b11100110 !
b11100110 *
0.
b11100110 #
b11100110 T
0{
b11011100 %
b11011100 (
b11011100 R
b1001 &
b1001 )
b1001 S
1'
#7700
1G
1m
1F
1l
0B
1C
0h
1i
02
07
1<
1A
0]
1b
1g
0X
0L
0Q
0r
0w
1.
0/
13
04
08
19
b100011 !
b100011 *
0=
bz0011100 +
1>
1Y
0Z
0^
1_
0c
1d
b100011 #
b100011 T
1{
b11100 U
0|
0I
0N
0o
0t
0-
11
16
0;
1W
1\
0a
0z
b11100 %
b11100 (
b11100 R
b110 &
b110 )
b110 S
#7900
1$
18
1"
1x
1^
17
1P
1v
1]
0G
0m
03
14
1M
1s
0Y
1Z
0F
0l
12
0<
1K
0b
1q
1X
1B
0C
0L
0Q
1h
0i
0r
0w
1/
09
b10101 !
b10101 *
0=
bz1101011 +
1H
0_
b10101 #
b10101 T
0c
1n
b11101011 U
1|
1,
10
05
0?
1D
1I
1N
1V
0[
0e
1j
1o
1t
1y
1-
01
06
1;
1E
0W
0\
1a
1k
1z
b11101011 %
b11101011 (
b11101011 R
b101001 &
b101001 )
b101001 S
#8100
1G
1m
1<
1A
1F
1b
1g
1l
0.
0{
19
0=
1>
0B
bz1111111 +
1C
b10100100 !
b10100100 *
1Q
1_
0c
1d
0h
b11111111 U
1i
b10100100 #
b10100100 T
1w
0,
15
1[
0y
16
0;
1@
1O
1\
0a
1f
1u
b11101110 %
b11101110 (
b11101110 R
b10110101 &
b10110101 )
b10110101 S
#8300
0$
0G
0"
0m
b1111111 U
0x
b10000000 !
b10000000 *
08
b10000000 #
b10000000 T
0^
1,
00
0:
1?
0D
0I
0N
0V
0`
1e
0j
0o
0t
1y
0-
11
06
1;
0@
1J
0O
1W
0\
1a
0f
1p
0u
0z
b10101 %
b10101 (
b10101 R
b1101010 &
b1101010 )
b1101010 S
#8500
0K
0q
0<
0b
1G
0H
1m
0n
13
18
09
1^
0_
1Y
0F
0l
0$
07
0A
0P
0]
0g
0v
0B
0C
1Q
0"
0h
0i
1w
0x
04
0=
0>
0L
0M
0Z
0c
0d
0r
0s
12
1X
0?
1D
1N
0e
1j
1t
1-
01
0;
0E
0J
0W
0a
0k
0p
1z
b10100110 !
b10100110 *
0.
bz0000001 +
1/
b10100110 #
b10100110 T
0{
b1 U
1|
b10100101 %
b10100101 (
b10100101 R
b1 &
b1 )
b1 S
0'
#8700
1B
1h
1A
1g
1>
1d
1F
1l
17
1<
1]
1b
0=
1C
1G
0Q
0c
1i
1m
0w
14
18
bz0011111 +
19
b1110110 !
b1110110 *
1L
1Z
1^
b11111 U
1_
b1110110 #
b1110110 T
1r
10
1:
1?
0D
0N
1V
1`
1e
0j
0t
11
16
1@
1J
1W
1\
1f
1p
b11111 %
b11111 (
b11111 R
b1010111 &
b1010111 )
b1010111 S
#8900
08
1Q
1w
0^
07
1P
1v
0]
04
0L
1M
0r
1s
0Z
02
1K
1q
1$
0X
0/
13
0G
bz1111100 +
1H
1"
1Y
0m
1n
1x
b11111100 U
0|
0B
0h
0,
00
0:
1D
1I
1N
0V
0`
1j
1o
1t
0y
0-
1;
0@
0J
1O
1a
0f
0p
1u
0z
b10000011 !
b10000011 *
1.
b10000011 #
b10000011 T
1{
b11110100 %
b11110100 (
b11110100 R
b10001110 &
b10001110 )
b10001110 S
1'
#9100
1F
1l
0B
1C
0h
1i
1A
1g
17
1]
0=
1>
0c
1d
03
14
0Y
1Z
1<
1b
12
1X
08
19
0^
1_
bz1111111 +
1/
1G
b100001 !
b100001 *
0Q
1m
b100001 #
b100001 T
0w
b11111111 U
1|
1,
05
1:
0I
0[
1`
0o
1y
1-
0;
1E
1J
0O
0a
1k
1p
0u
1z
b10111001 %
b10111001 (
b10111001 R
b1100111 &
b1100111 )
b1100111 S
#9300
0K
0q
0H
0n
0F
0l
0<
0b
0$
1B
0C
1h
0i
18
09
1Q
0"
1^
0_
1w
0x
0A
0g
07
0P
0]
0v
0.
0=
0>
0c
0d
0{
13
04
1G
b10110110 !
b10110110 *
0L
bz0000001 +
0M
1Y
0Z
1m
b10110110 #
b10110110 T
0r
b1 U
0s
0,
15
0:
0?
0N
1[
0`
0e
0t
0y
01
06
1@
0E
0J
1O
0W
0\
1f
0k
0p
1u
b100100 %
b100100 (
b100100 R
b10010001 &
b10010001 )
b10010001 S
#9500
1$
0Q
1"
0w
1x
02
0X
10
05
1?
1N
1V
0[
1e
1t
16
0@
1\
0f
b110111 !
b110111 *
1.
bz0000000 +
0/
b110111 #
b110111 T
1{
b10000000 U
0|
b10110010 %
b10110010 (
b10110010 R
b10000101 &
b10000101 )
b10000101 S
0'
#9700
1=
1c
12
1<
1b
1X
0$
0.
1/
13
08
bz0000101 +
19
0B
1Y
0^
1_
0h
0{
1|
1L
b11101010 !
b11101010 *
1Q
0"
1r
b11101010 #
b11101010 T
1w
b101 U
0x
1,
00
15
0?
0D
0V
1[
0e
0j
1y
1E
1J
0O
1k
1p
0u
b10000101 %
b10000101 (
b10000101 R
b1100101 &
b1100101 )
b1100101 S
#9900
1K
1q
0G
1H
0m
1n
1F
1l
03
18
1C
1^
1i
0Y
02
17
1A
1]
1g
0X
0/
14
0=
bz0111110 +
1>
0B
b11000100 !
b11000100 *
1L
1Z
0c
1d
0h
b11000100 #
b11000100 T
1r
b111110 U
0|
0,
10
1D
1V
1j
0y
0-
11
1;
1@
0E
0J
1W
1a
1f
0k
0p
0z
b10100110 %
b10100110 (
b10100110 R
b11110 &
b11110 )
b11110 S
#10100
0<
0b
1$
09
0Q
1"
0_
0w
1x
07
1P
0]
1v
0=
1B
0c
1h
1.
13
04
b1010111 !
b1010111 *
18
bz1111000 +
1M
1Y
0Z
1^
b11111000 U
1s
b1010111 #
b1010111 T
1{
1:
1?
0D
1I
0N
1`
1e
0j
1o
0t
1-
01
06
1E
1J
1O
0W
0\
1k
1p
1u
1z
b1011110 %
b1011110 (
b1011110 R
b11111001 &
b11111001 )
b11111001 S
#10300
0$
1Q
0"
1w
0x
0P
0v
0M
0s
0K
0q
1G
0H
1m
0n
0F
0l
0C
0i
0A
0g
03
1L
0Y
1r
bz0000000 +
0>
b11110101 !
b11110101 *
1B
b0 U
0d
b11110101 #
b11110101 T
1h
00
05
0:
1D
0I
0V
0[
0`
1j
0o
16
0;
0@
0E
1\
0a
0f
0k
b110000 %
b110000 (
b110000 R
b11000101 &
b11000101 )
b11000101 S
#10500
13
1Y
1=
1c
08
0^
12
1X
1,
1:
0D
1I
1`
0j
1o
1y
0-
06
1E
0J
0\
1k
0p
0z
b11111010 !
b11111010 *
0.
bz0000001 +
1/
b11111010 #
b11111010 T
0{
b1 U
1|
b1011001 %
b1011001 (
b1011001 R
b10100000 &
b10100000 )
b10100000 S
1'
#10700
1$
0Q
1"
0w
1x
1P
1v
0L
1M
0r
1s
1K
1q
0G
1H
0m
1n
1F
1l
0B
1C
0h
1i
1A
1g
18
0=
1>
1^
0c
1d
02
0X
0,
10
0I
1N
1V
0o
1t
0y
16
1;
1J
0O
1\
1a
1p
0u
b110 !
b110 *
0.
bz1111000 +
0/
b110 #
b110 T
0{
b11111000 U
0|
b10011010 %
b10011010 (
b10011010 R
b1101100 &
b1101100 )
b1101100 S
0'
#10900
1.
03
1G
0Y
1m
1{
b110101 !
b110101 *
1B
b110101 #
b110101 T
1h
1,
00
1D
1I
0N
0V
1j
1o
0t
1y
1@
0J
1O
1f
0p
1u
b1111001 %
b1111001 (
b1111001 R
b10111100 &
b10111100 )
b10111100 S
#11100
0P
0v
0G
1L
0M
0m
1r
0s
0B
0h
0F
0K
0l
0q
0A
0g
0$
13
1Y
0C
0H
0i
0n
1=
0>
0Q
0"
1c
0d
0w
0x
12
1X
0?
0D
0I
0e
0j
0o
0;
0@
0E
1J
0O
0a
0f
0k
1p
0u
b1001110 !
b1001110 *
0.
bz0000001 +
1/
b1001110 #
b1001110 T
0{
b1 U
1|
b1001 %
b1001 (
b1001 R
b1000100 &
b1000100 )
b1000100 S
1'
#11300
17
1<
1]
1b
1$
03
14
18
bz0000111 +
19
1=
1"
0Y
1Z
1^
1_
1c
b10000111 U
1x
1B
b1111100 !
b1111100 *
1G
1h
b1111100 #
b1111100 T
1m
0,
10
15
0:
1N
1V
1[
0`
1t
0y
1-
1@
1E
1O
1f
1k
1u
1z
b10000110 %
b10000110 (
b10000110 R
b11110101 &
b11110101 )
b11110101 S
#11500
1P
1v
0L
1M
0r
1s
1K
1q
0G
1H
0m
1n
0<
1F
0b
1l
1$
0A
0g
09
0B
1C
0Q
1"
0_
0h
1i
0w
1x
1=
0>
1c
0d
02
0X
05
1?
1D
0N
0[
1e
1j
0t
11
06
1;
0E
1W
0\
1a
0k
b1101 !
b1101 *
1.
bz1110010 +
0/
b1101 #
b1101 T
1{
b11110010 U
0|
b110010 %
b110010 (
b110010 R
b11011011 &
b11011011 )
b11011011 S
0'
#11700
0A
0g
1=
0>
1c
0d
07
0<
0]
0b
0F
0l
13
04
18
09
1L
1Q
1Y
0Z
1^
0_
1r
1w
1B
bz1100000 +
0C
b11011111 !
b11011111 *
0G
1h
b11100000 U
0i
b11011111 #
b11011111 T
0m
00
15
1:
1I
1N
0V
1[
1`
1o
1t
0;
0@
1E
0a
0f
1k
b11111100 %
b11111100 (
b11111100 R
b11100011 &
b11100011 )
b11100011 S
#11900
1G
1m
1F
1l
0B
1C
0h
1i
1A
1g
0=
1>
0c
1d
1<
1b
08
19
0^
1_
0Q
0w
17
1]
0P
0v
03
14
0Y
1Z
0M
0s
12
1X
0K
0q
0.
1/
b1100000 !
b1100000 *
1L
1r
b1100000 #
b1100000 T
0{
1|
bz0011111 +
0H
b10011111 U
0n
1,
05
0?
0D
0I
0[
0e
0j
0o
1y
16
1@
0E
1\
1f
0k
b10001001 %
b10001001 (
b10001001 R
b11010111 &
b11010111 )
b11010111 S
