week07/ex01/wave.vcd
$date
	Thu Nov  2 02:48:35 2023
$end
$version
	Icarus Verilog
$end
$timescale
	1ps
$end
$scope module tb_RegFile $end
$var wire 8 ! rdata2 [7:0] $end
$var wire 8 " rdata1 [7:0] $end
$var wire 8 # _rdata2 [7:0] $end
$var wire 8 $ _rdata1 [7:0] $end
$var reg 1 % clk $end
$var reg 4 & raddr1 [3:0] $end
$var reg 4 ' raddr2 [3:0] $end
$var reg 4 ( waddr [3:0] $end
$var reg 8 ) wdata [7:0] $end
$var reg 1 * we $end
$var integer 32 + i [31:0] $end
$var integer 32 , seed [31:0] $end
$scope module u1 $end
$var wire 1 % clk $end
$var wire 4 - raddr1 [3:0] $end
$var wire 4 . raddr2 [3:0] $end
$var wire 4 / waddr [3:0] $end
$var wire 8 0 wdata [7:0] $end
$var wire 1 * we $end
$var reg 8 1 rdata1 [7:0] $end
$var reg 8 2 rdata2 [7:0] $end
$upscope $end
$scope module u2 $end
$var wire 1 % clk $end
$var wire 4 3 raddr1 [3:0] $end
$var wire 4 4 raddr2 [3:0] $end
$var wire 4 5 waddr [3:0] $end
$var wire 8 6 wdata [7:0] $end
$var wire 1 * we $end
$var reg 8 7 rdata1 [7:0] $end
$var reg 8 8 rdata2 [7:0] $end
$upscope $end
$upscope $end
$enddefinitions $end
#0
$dumpvars
bx 8
bx 7
b0 6
b0 5
b0 4
b0 3
bx 2
bx 1
b0 0
b0 /
b0 .
b0 -
b1100100 ,
bx +
0*
b0 )
b0 (
b0 '
b0 &
0%
bx $
bx #
bx "
bx !
$end
#50000
b0 #
b0 8
b0 $
b0 7
1%
#100000
0%
b11010010110010000010101 ,
1*
b0 +
#150000
1%
b1 +
#200000
0%
b100101 )
b100101 0
b100101 6
b10010100011110011010111010010 ,
b1 (
b1 /
b1 5
#250000
b0 !
b0 2
b0 "
b0 1
1%
b10 +
#300000
0%
b10110000 )
b10110000 0
b10110000 6
b1011000001110111100001100101011 ,
b10 (
b10 /
b10 5
#350000
1%
b11 +
#400000
0%
b11100111 )
b11100111 0
b11100111 6
b1110011111011110111100001110000 ,
b11 (
b11 /
b11 5
#450000
1%
b100 +
#500000
0%
b11110000 )
b11110000 0
b11110000 6
b1111000010100010010000110110001 ,
b100 (
b100 /
b100 5
#550000
1%
b101 +
#600000
0%
b110010 )
b110010 0
b110010 6
b10011001010111101111011110111110 ,
b101 (
b101 /
b101 5
#650000
1%
b110 +
#700000
0%
b110110 )
b110110 0
b110110 6
b10011011010111110000100100100111 ,
b110 (
b110 /
b110 5
#750000
1%
b111 +
#800000
0%
b10001111 )
b10001111 0
b10001111 6
b1000111101110000100111100111100 ,
b111 (
b111 /
b111 5
#850000
1%
b1000 +
#900000
0%
b110011 )
b110011 0
b110011 6
b11001110110010111111100001101 ,
b1000 (
b1000 /
b1000 5
#950000
1%
b1001 +
#1000000
0%
b1111011 )
b1111011 0
b1111011 6
b111101101010110110011001101010 ,
b1001 (
b1001 /
b1001 5
#1050000
1%
b1010 +
#1100000
0%
b11111001 )
b11111001 0
b11111001 6
b1111100110111100110010011100011 ,
b1010 (
b1010 /
b1010 5
#1150000
1%
b1011 +
#1200000
0%
b1011100 )
b1011100 0
b1011100 6
b10101110000110010101000011001000 ,
b1011 (
b1011 /
b1011 5
#1250000
1%
b1100 +
#1300000
0%
b1000 )
b1000 0
b1000 6
b100001001111101100000101001 ,
b1100 (
b1100 /
b1100 5
#1350000
1%
b1101 +
#1400000
0%
b1100100 )
b1100100 0
b1100100 6
b110010000010110010110111010110 ,
b1101 (
b1101 /
b1101 5
#1450000
1%
b1110 +
#1500000
0%
b10100100 )
b10100100 0
b10100100 6
b11010010000111011001001001011111 ,
b1110 (
b1110 /
b1110 5
#1550000
1%
b1111 +
#1600000
0%
b10101000 )
b10101000 0
b10101000 6
b1010100011111000000100100010100 ,
b1111 (
b1111 /
b1111 5
#1650000
1%
b10000 +
#1700000
0%
b101 '
b101 .
b101 4
b1001 &
b1001 -
b1001 3
b10111011011011101000000010 ,
0*
#1750000
b110010 #
b110010 8
b1111011 $
b1111011 7
b110010 !
b110010 2
b1111011 "
b1111011 1
1%
#1800000
b1001 '
b1001 .
b1001 4
b110100100000001100010000100000 ,
0%
#1850000
b1111011 !
b1111011 2
b1111011 #
b1111011 8
1%
#1900000
b1100 '
b1100 .
b1100 4
b10 &
b10 -
b10 3
b10101110000001110011011011101110 ,
0%
#1950000
b1000 #
b1000 8
b10110000 $
b10110000 7
b1000 !
b1000 2
b10110000 "
b10110000 1
1%
#2000000
b1000 '
b1000 .
b1000 4
b0 &
b0 -
b0 3
b11100010010101000110111101100 ,
0%
#2050000
b110011 !
b110011 2
b0 "
b0 1
b110011 #
b110011 8
b0 $
b0 7
1%
#2100000
b1100 '
b1100 .
b1100 4
b1101 &
b1101 -
b1101 3
b1111110011111001001000010011010 ,
0%
#2150000
b1000 #
b1000 8
b1100100 $
b1100100 7
b1000 !
b1000 2
b1100100 "
b1100100 1
1%
#2200000
b11 '
b11 .
b11 4
b1011 &
b1011 -
b1011 3
b111001100010110011001001111000 ,
0%
#2250000
b11100111 !
b11100111 2
b1011100 "
b1011100 1
b11100111 #
b11100111 8
b1011100 $
b1011100 7
1%
#2300000
b0 &
b0 -
b0 3
b11011001110011110111001100000110 ,
0%
#2350000
b0 $
b0 7
b0 "
b0 1
1%
#2400000
b110 '
b110 .
b110 4
b1101 &
b1101 -
b1101 3
b10110011010011110011110111000100 ,
0%
#2450000
b110110 !
b110110 2
b1100100 "
b1100100 1
b110110 #
b110110 8
b1100100 $
b1100100 7
1%
#2500000
b11 '
b11 .
b11 4
b100 &
b100 -
b100 3
b11101001100010100100101000110010 ,
0%
#2550000
b11100111 #
b11100111 8
b11110000 $
b11110000 7
b11100111 !
b11100111 2
b11110000 "
b11110000 1
1%
#2600000
b1101 '
b1101 .
b1101 4
b111 &
b111 -
b111 3
b11110100010011111101111010000 ,
0%
#2650000
b1100100 !
b1100100 2
b10001111 "
b10001111 1
b1100100 #
b1100100 8
b10001111 $
b10001111 7
1%
#2700000
b1011 '
b1011 .
b1011 4
b100 &
b100 -
b100 3
b11001101101011000100001000011110 ,
0%
#2750000
b1011100 #
b1011100 8
b11110000 $
b11110000 7
b1011100 !
b1011100 2
b11110000 "
b11110000 1
1%
#2800000
b10 '
b10 .
b10 4
b1000 &
b1000 -
b1000 3
b1011001011000010111100010011100 ,
0%
#2850000
b10110000 !
b10110000 2
b110011 "
b110011 1
b10110000 #
b10110000 8
b110011 $
b110011 7
1%
#2900000
b111 '
b111 .
b111 4
b1101 &
b1101 -
b1101 3
b11000011110101010100011011001010 ,
0%
#2950000
b10001111 #
b10001111 8
b1100100 $
b1100100 7
b10001111 !
b10001111 2
b1100100 "
b1100100 1
1%
#3000000
b10 '
b10 .
b10 4
b1010 &
b1010 -
b1010 3
b11001001110101000000000101000 ,
0%
#3050000
b10110000 !
b10110000 2
b11111001 "
b11111001 1
b10110000 #
b10110000 8
b11111001 $
b11111001 7
1%
#3100000
b1110 '
b1110 .
b1110 4
b1001 &
b1001 -
b1001 3
b1101111001100100000010000110110 ,
0%
#3150000
b10100100 #
b10100100 8
b1111011 $
b1111011 7
b10100100 !
b10100100 2
b1111011 "
b1111011 1
1%
#3200000
b1111 '
b1111 .
b1111 4
b10 &
b10 -
b10 3
b110111100001001001111001110100 ,
0%
#3250000
b10101000 !
b10101000 2
b10110000 "
b10110000 1
b10101000 #
b10101000 8
b10110000 $
b10110000 7
1%
#3300000
b1010 '
b1010 .
b1010 4
b1111 &
b1111 -
b1111 3
b101101001001111110011001100010 ,
0%
#3350000
b11111001 #
b11111001 8
b10101000 $
b10101000 7
b11111001 !
b11111001 2
b10101000 "
b10101000 1
1%
#3400000
b10 '
b10 .
b10 4
b1100 &
b1100 -
b1100 3
b10001001010001100001111110000000 ,
0%
#3450000
b10110000 !
b10110000 2
b1000 "
b1000 1
b10110000 #
b10110000 8
b1000 $
b1000 7
1%
#3500000
b101 '
b101 .
b101 4
b1000 &
b1000 -
b1000 3
b100010110000010001100101001110 ,
0%
#3550000
b110010 #
b110010 8
b110011 $
b110011 7
b110010 !
b110010 2
b110011 "
b110011 1
1%
#3600000
b1010 '
b1010 .
b1010 4
b11001101011010000000111101001100 ,
0%
#3650000
b11111001 !
b11111001 2
b11111001 #
b11111001 8
1%
#3700000
b1101 '
b1101 .
b1101 4
b1101110110110001000100011111010 ,
0%
#3750000
b1100100 #
b1100100 8
b1100100 !
b1100100 2
1%
#3800000
b1011 '
b1011 .
b1011 4
b110 &
b110 -
b110 3
b11111101110000100011100111011000 ,
0%
#3850000
b1011100 !
b1011100 2
b110110 "
b110110 1
b1011100 #
b1011100 8
b110110 $
b110110 7
1%
#3900000
b1010 '
b1010 .
b1010 4
b10101101000001011110000101100110 ,
0%
#3950000
b11111001 #
b11111001 8
b11111001 !
b11111001 2
1%
#4000000
b1101 '
b1101 .
b1101 4
b111 &
b111 -
b111 3
b1110111001110010101100100100 ,
0%
#4050000
b1100100 !
b1100100 2
b10001111 "
b10001111 1
b1100100 #
b1100100 8
b10001111 $
b10001111 7
1%
#4100000
b1010 '
b1010 .
b1010 4
b1110 &
b1110 -
b1110 3
b10110101010010011000111010010010 ,
0%
#4150000
b11111001 #
b11111001 8
b10100100 $
b10100100 7
b11111001 !
b11111001 2
b10100100 "
b10100100 1
1%
#4200000
b101 '
b101 .
b101 4
b1101 &
b1101 -
b1101 3
b11101010101100000010111100110000 ,
0%
#4250000
b110010 !
b110010 2
b1100100 "
b1100100 1
b110010 #
b110010 8
b1100100 $
b1100100 7
1%
#4300000
b1000 '
b1000 .
b1000 4
b1 &
b1 -
b1 3
b1000100011110001011110001111110 ,
0%
#4350000
b110011 #
b110011 8
b100101 $
b100101 7
b110011 !
b110011 2
b100101 "
b100101 1
1%
#4400000
b11 '
b11 .
b11 4
b101 &
b101 -
b101 3
b110001100010010101000111111100 ,
0%
#4450000
b11100111 !
b11100111 2
b110010 "
b110010 1
b11100111 #
b11100111 8
b110010 $
b110010 7
1%
#4500000
b10 '
b10 .
b10 4
b1100 &
b1100 -
b1100 3
b11111001011010010101011100101010 ,
0%
#4550000
b10110000 #
b10110000 8
b1000 $
b1000 7
b10110000 !
b10110000 2
b1000 "
b1000 1
1%
#4600000
b1100 '
b1100 .
b1100 4
b11 &
b11 -
b11 3
b1110011111010101111110001000 ,
0%
#4650000
b1000 !
b1000 2
b11100111 "
b11100111 1
b1000 #
b1000 8
b11100111 $
b11100111 7
1%
#4700000
b101 '
b101 .
b101 4
b1111 &
b1111 -
b1111 3
b11010010110111100000101010010110 ,
0%
#4750000
b110010 #
b110010 8
b10101000 $
b10101000 7
b110010 !
b110010 2
b10101000 "
b10101000 1
1%
#4800000
b100 '
b100 .
b100 4
b1001 &
b1001 -
b1001 3
b101010000000011110001111010100 ,
0%
#4850000
b11110000 !
b11110000 2
b1111011 "
b1111011 1
b11110000 #
b11110000 8
b1111011 $
b1111011 7
1%
#4900000
b1111 &
b1111 -
b1111 3
b11010001100100100001011000010 ,
0%
#4950000
b10101000 $
b10101000 7
b10101000 "
b10101000 1
1%
#5000000
b1111 '
b1111 .
b1111 4
b100 &
b100 -
b100 3
b10000111100000110010101011100000 ,
0%
#5050000
b10101000 !
b10101000 2
b11110000 "
b11110000 1
b10101000 #
b10101000 8
b11110000 $
b11110000 7
1%
#5100000
b1101 '
b1101 .
b1101 4
b0 &
b0 -
b0 3
b1100110110001100010101110101110 ,
0%
#5150000
b1100100 #
b1100100 8
b0 $
b0 7
b1100100 !
b1100100 2
b0 "
b0 1
1%
#5200000
b11 '
b11 .
b11 4
b1 &
b1 -
b1 3
b11011001101100000100000010101100 ,
0%
#5250000
b11100111 !
b11100111 2
b100101 "
b100101 1
b11100111 #
b11100111 8
b100101 $
b100101 7
1%
#5300000
b1100 '
b1100 .
b1100 4
b1100 &
b1100 -
b1100 3
b100110001010101011000101011010 ,
0%
#5350000
b1000 #
b1000 8
b1000 $
b1000 7
b1000 !
b1000 2
b1000 "
b1000 1
1%
#5400000
b11 '
b11 .
b11 4
b1001 &
b1001 -
b1001 3
b10011001100001101111000100111000 ,
0%
#5450000
b11100111 !
b11100111 2
b1111011 "
b1111011 1
b11100111 #
b11100111 8
b1111011 $
b1111011 7
1%
#5500000
b1010 '
b1010 .
b1010 4
b11010101000011010111111111000110 ,
0%
#5550000
b11111001 #
b11111001 8
b11111001 !
b11111001 2
1%
#5600000
b1000 '
b1000 .
b1000 4
b110 &
b110 -
b110 3
b11101100000111111100100010000100 ,
0%
#5650000
b110011 !
b110011 2
b110110 "
b110110 1
b110011 #
b110011 8
b110110 $
b110110 7
1%
#5700000
b1001 '
b1001 .
b1001 4
b11010100111001010000001011110010 ,
0%
#5750000
b1111011 #
b1111011 8
b1111011 !
b1111011 2
1%
#5800000
b110 '
b110 .
b110 4
b1110 &
b1110 -
b1110 3
b100011001110100001001010010000 ,
0%
#5850000
b110110 !
b110110 2
b10100100 "
b10100100 1
b110110 #
b110110 8
b10100100 $
b10100100 7
1%
#5900000
b100 '
b100 .
b100 4
b110 &
b110 -
b110 3
b10001010010111000110011011011110 ,
0%
#5950000
b11110000 #
b11110000 8
b110110 $
b110110 7
b11110000 !
b11110000 2
b110110 "
b110110 1
1%
#6000000
b1001 '
b1001 .
b1001 4
b1000 &
b1000 -
b1000 3
b1100100100001111101101101011100 ,
0%
#6050000
b1111011 !
b1111011 2
b110011 "
b110011 1
b1111011 #
b1111011 8
b110011 $
b110011 7
1%
#6100000
b0 '
b0 .
b0 4
b100 &
b100 -
b100 3
b110000011111111001011110001010 ,
0%
#6150000
b0 #
b0 8
b11110000 $
b11110000 7
b0 !
b0 2
b11110000 "
b11110000 1
1%
#6200000
b111 '
b111 .
b111 4
b0 &
b0 -
b0 3
b11000011101110011110111011101000 ,
0%
#6250000
b10001111 !
b10001111 2
b0 "
b0 1
b10001111 #
b10001111 8
b0 $
b0 7
1%
#6300000
b1001 '
b1001 .
b1001 4
b111 &
b111 -
b111 3
b10001100101001110100000011110110 ,
0%
#6350000
b1111011 #
b1111011 8
b10001111 $
b10001111 7
b1111011 !
b1111011 2
b10001111 "
b10001111 1
1%
#6400000
b110 '
b110 .
b110 4
b10 &
b10 -
b10 3
b11011011010010111101100100110100 ,
0%
#6450000
b110110 !
b110110 2
b10110000 "
b10110000 1
b110110 #
b110110 8
b10110000 $
b10110000 7
1%
#6500000
b1110 '
b1110 .
b1110 4
b1101 &
b1101 -
b1101 3
b1101111001001001100111100100010 ,
0%
#6550000
b10100100 #
b10100100 8
b1100100 $
b1100100 7
b10100100 !
b10100100 2
b1100100 "
b1100100 1
1%
#6600000
b0 '
b0 .
b0 4
b1100 &
b1100 -
b1100 3
b10110000000011111110011001000000 ,
0%
#6650000
b0 !
b0 2
b1000 "
b1000 1
b0 #
b0 8
b1000 $
b1000 7
1%
#6700000
b1001 '
b1001 .
b1001 4
b11 &
b11 -
b11 3
b10101100101011100110111000001110 ,
0%
#6750000
b1111011 #
b1111011 8
b11100111 $
b11100111 7
b1111011 !
b1111011 2
b11100111 "
b11100111 1
1%
#6800000
b110 '
b110 .
b110 4
b10 &
b10 -
b10 3
b1101011011110110010001000001100 ,
0%
#6850000
b110110 !
b110110 2
b10110000 "
b10110000 1
b110110 #
b110110 8
b10110000 $
b10110000 7
1%
#6900000
b1001 '
b1001 .
b1001 4
b1000 &
b1000 -
b1000 3
b11111100100010110000100110111010 ,
0%
#6950000
b1111011 #
b1111011 8
b110011 $
b110011 7
b1111011 !
b1111011 2
b110011 "
b110011 1
1%
#7000000
b1 '
b1 .
b1 4
b1001 &
b1001 -
b1001 3
b111000101100010101100010011000 ,
0%
#7050000
b100101 !
b100101 2
b1111011 "
b1111011 1
b100101 #
b100101 8
b1111011 $
b1111011 7
1%
#7100000
b1110 '
b1110 .
b1110 4
b0 &
b0 -
b0 3
b11100111011111100100111000100110 ,
0%
#7150000
b10100100 #
b10100100 8
b0 $
b0 7
b10100100 !
b10100100 2
b0 "
b0 1
1%
#7200000
b0 '
b0 .
b0 4
b1010000010100010001010111100100 ,
0%
#7250000
b0 !
b0 2
b0 #
b0 8
1%
#7300000
b110 '
b110 .
b110 4
b1001 &
b1001 -
b1001 3
b10110011011101001010011101010010 ,
0%
#7350000
b110110 #
b110110 8
b1111011 $
b1111011 7
b110110 !
b110110 2
b1111011 "
b1111011 1
1%
#7400000
b1101 '
b1101 .
b1101 4
b0 &
b0 -
b0 3
b11111110111111111010010111110000 ,
0%
#7450000
b1100100 !
b1100100 2
b0 "
b0 1
b1100100 #
b1100100 8
b0 $
b0 7
1%
#7500000
b1111 '
b1111 .
b1111 4
b1000 &
b1000 -
b1000 3
b11110111111011110100000100111110 ,
0%
#7550000
b10101000 #
b10101000 8
b110011 $
b110011 7
b10101000 !
b10101000 2
b110011 "
b110011 1
1%
#7600000
b101 '
b101 .
b101 4
b100 &
b100 -
b100 3
b110010101101010001010010111100 ,
0%
#7650000
b110010 !
b110010 2
b11110000 "
b11110000 1
b110010 #
b110010 8
b11110000 $
b11110000 7
1%
#7700000
b1110 '
b1110 .
b1110 4
b11 &
b11 -
b11 3
b1000111001100000000011111101010 ,
0%
#7750000
b10100100 #
b10100100 8
b11100111 $
b11100111 7
b10100100 !
b10100100 2
b11100111 "
b11100111 1
1%
#7800000
b101 '
b101 .
b101 4
b11011010110010000010111001001000 ,
0%
#7850000
b110010 !
b110010 2
b110010 #
b110010 8
1%
#7900000
b0 '
b0 .
b0 4
b101 &
b101 -
b101 3
b11000001001011010011101010110 ,
0%
#7950000
b0 #
b0 8
b110010 $
b110010 7
b0 !
b0 2
b110010 "
b110010 1
1%
#8000000
b1101 '
b1101 .
b1101 4
b1101 &
b1101 -
b1101 3
b100110101110100111111010010100 ,
0%
#8050000
b1100100 !
b1100100 2
b1100100 "
b1100100 1
b1100100 #
b1100100 8
b1100100 $
b1100100 7
1%
#8100000
b1010 '
b1010 .
b1010 4
b100 &
b100 -
b100 3
b11011101000101111000101110000010 ,
0%
#8150000
b11111001 #
b11111001 8
b11110000 $
b11110000 7
b11111001 !
b11111001 2
b11110000 "
b11110000 1
1%
#8200000
b1111 '
b1111 .
b1111 4
b10 &
b10 -
b10 3
b1101111110001000101000110100000 ,
0%
#8250000
b10101000 !
b10101000 2
b10110000 "
b10110000 1
b10101000 #
b10101000 8
b10110000 $
b10110000 7
1%
#8300000
b110 '
b110 .
b110 4
b11 &
b11 -
b11 3
b11110011000100011110000001101110 ,
0%
#8350000
b110110 #
b110110 8
b11100111 $
b11100111 7
b110110 !
b110110 2
b11100111 "
b11100111 1
1%
#8400000
b10 '
b10 .
b10 4
b1100 &
b1100 -
b1100 3
b1011001001000001011001101101100 ,
0%
#8450000
b10110000 !
b10110000 2
b1000 "
b1000 1
b10110000 #
b10110000 8
b1000 $
b1000 7
1%
#8500000
b1100 '
b1100 .
b1100 4
b111 &
b111 -
b111 3
b11010110000100011001001000011010 ,
0%
#8550000
b1000 #
b1000 8
b10001111 $
b10001111 7
b1000 !
b1000 2
b10001111 "
b10001111 1
1%
#8600000
b110 '
b110 .
b110 4
b101 &
b101 -
b101 3
b1110011000110010110111111111000 ,
0%
#8650000
b110110 !
b110110 2
b110010 "
b110010 1
b110110 #
b110110 8
b110010 $
b110010 7
1%
#8700000
b1011 '
b1011 .
b1011 4
b1100 &
b1100 -
b1100 3
b11000101111100000100110010000110 ,
0%
#8750000
b1011100 #
b1011100 8
b1000 $
b1000 7
b1011100 !
b1011100 2
b1000 "
b1000 1
1%
#8800000
b1001 '
b1001 .
b1001 4
b11 &
b11 -
b11 3
b1101100110100110001001101000100 ,
0%
#8850000
b1111011 !
b1111011 2
b11100111 "
b11100111 1
b1111011 #
b1111011 8
b11100111 $
b11100111 7
1%
#8900000
b0 '
b0 .
b0 4
b0 &
b0 -
b0 3
b11001000000100000111101110110010 ,
0%
#8950000
b0 #
b0 8
b0 $
b0 7
b0 !
b0 2
b0 "
b0 1
1%
#9000000
b1 '
b1 .
b1 4
b1110 &
b1110 -
b1110 3
b10100000110110001110100101010000 ,
0%
#9050000
b100101 !
b100101 2
b10100100 "
b10100100 1
b100101 #
b100101 8
b10100100 $
b10100100 7
1%
#9100000
b11 '
b11 .
b11 4
b101 &
b101 -
b101 3
b10110001110010010100101110011110 ,
0%
#9150000
b11100111 #
b11100111 8
b110010 $
b110010 7
b11100111 !
b11100111 2
b110010 "
b110010 1
1%
#9200000
b0 '
b0 .
b0 4
b10001000011010001111111000011100 ,
0%
#9250000
b0 !
b0 2
b0 #
b0 8
1%
#9300000
b1111 '
b1111 .
b1111 4
b1110 &
b1110 -
b1110 3
b10100111100100101010100001001010 ,
0%
#9350000
b10101000 #
b10101000 8
b10100100 $
b10100100 7
b10101000 !
b10101000 2
b10100100 "
b10100100 1
1%
#9400000
b11 '
b11 .
b11 4
b110 &
b110 -
b110 3
b1100001100000000001110110101000 ,
0%
#9450000
b11100111 !
b11100111 2
b110110 "
b110110 1
b11100111 #
b11100111 8
b110110 $
b110110 7
1%
#9500000
b1001 '
b1001 .
b1001 4
b101 &
b101 -
b101 3
b111100111100010011110110110110 ,
0%
#9550000
b1111011 #
b1111011 8
b110010 $
b110010 7
b1111011 !
b1111011 2
b110010 "
b110010 1
1%
#9600000
b111 '
b111 .
b111 4
b110 &
b110 -
b110 3
b10011101001011101001111110100 ,
0%
#9650000
b10001111 !
b10001111 2
b110110 "
b110110 1
b10001111 #
b10001111 8
b110110 $
b110110 7
1%
#9700000
b10 '
b10 .
b10 4
b111 &
b111 -
b111 3
b100001001000100111011111100010 ,
0%
#9750000
b10110000 #
b10110000 8
b10001111 $
b10001111 7
b10110000 !
b10110000 2
b10001111 "
b10001111 1
1%
#9800000
b1110 '
b1110 .
b1110 4
b1 &
b1 -
b1 3
b11111011110000110110100000000 ,
0%
#9850000
b10100100 !
b10100100 2
b100101 "
b100101 1
b10100100 #
b10100100 8
b100101 $
b100101 7
1%
#9900000
b1001 '
b1001 .
b1001 4
b1011 &
b1011 -
b1011 3
b100100010001000001011001110 ,
0%
#9950000
b1111011 #
b1111011 8
b1011100 $
b1011100 7
b1111011 !
b1111011 2
b1011100 "
b1011100 1
1%
#10000000
b101 &
b101 -
b101 3
b100100111110001111010011001100 ,
0%
#10050000
b110010 "
b110010 1
b110010 $
b110010 7
1%
#10100000
b101 '
b101 .
b101 4
b1001 &
b1001 -
b1001 3
b100010110101100100101001111010 ,
0%
#10150000
b110010 #
b110010 8
b1111011 $
b1111011 7
b110010 !
b110010 2
b1111011 "
b1111011 1
1%
#10200000
b1001 '
b1001 .
b1001 4
b11 &
b11 -
b11 3
b1001100100101110011011101011000 ,
0%
#10250000
b1111011 !
b1111011 2
b11100111 "
b11100111 1
b1111011 #
b1111011 8
b11100111 $
b11100111 7
1%
#10300000
b1011 '
b1011 .
b1011 4
b100 &
b100 -
b100 3
b10011101111110110111101011100110 ,
0%
#10350000
b1011100 #
b1011100 8
b11110000 $
b11110000 7
b1011100 !
b1011100 2
b11110000 "
b11110000 1
1%
#10400000
b1101 '
b1101 .
b1101 4
b101 &
b101 -
b101 3
b10011110111111011100000010100100 ,
0%
#10450000
b1100100 !
b1100100 2
b110010 "
b110010 1
b1100100 #
b1100100 8
b110010 $
b110010 7
1%
#10500000
b1011 '
b1011 .
b1011 4
b1001 &
b1001 -
b1001 3
b10010101110100001000000000010010 ,
0%
#10550000
b1011100 #
b1011100 8
b1111011 $
b1111011 7
b1011100 !
b1011100 2
b1111011 "
b1111011 1
1%
#10600000
b1111 '
b1111 .
b1111 4
b1101 &
b1101 -
b1101 3
b10111100111011101110010110000 ,
0%
#10650000
b10101000 !
b10101000 2
b1100100 "
b1100100 1
b10101000 #
b10101000 8
b1100100 $
b1100100 7
1%
#10700000
b1 '
b1 .
b1 4
b100 &
b100 -
b100 3
b10101000100000101000010111111110 ,
0%
#10750000
b100101 #
b100101 8
b11110000 $
b11110000 7
b100101 !
b100101 2
b11110000 "
b11110000 1
1%
#10800000
b1011 '
b1011 .
b1011 4
b1110 &
b1110 -
b1110 3
b11111101111110111001011101111100 ,
0%
#10850000
b1011100 !
b1011100 2
b10100100 "
b10100100 1
b1011100 #
b1011100 8
b10100100 $
b10100100 7
1%
#10900000
b1111 '
b1111 .
b1111 4
b1 &
b1 -
b1 3
b1000111101111110111100010101010 ,
0%
#10950000
b10101000 #
b10101000 8
b100101 $
b100101 7
b10101000 !
b10101000 2
b100101 "
b100101 1
1%
#11000000
b11 '
b11 .
b11 4
b1100 &
b1100 -
b1100 3
b11010001101110011011110100001000 ,
0%
#11050000
b11100111 !
b11100111 2
b1000 "
b1000 1
b11100111 #
b11100111 8
b1000 $
b1000 7
1%
#11100000
b1101 '
b1101 .
b1101 4
b1010 &
b1010 -
b1010 3
b1110101000100000010000010110 ,
0%
#11150000
b1100100 #
b1100100 8
b11111001 $
b11111001 7
b1100100 !
b1100100 2
b11111001 "
b11111001 1
1%
#11200000
b1010 '
b1010 .
b1010 4
b1100 &
b1100 -
b1100 3
b11010101011001011101100101010100 ,
0%
#11250000
b11111001 !
b11111001 2
b1000 "
b1000 1
b11111001 #
b11111001 8
b1000 $
b1000 7
1%
#11300000
b1000 '
b1000 .
b1000 4
b1111 &
b1111 -
b1111 3
b100010111011001010001000010 ,
0%
#11350000
b110011 #
b110011 8
b10101000 $
b10101000 7
b110011 !
b110011 2
b10101000 "
b10101000 1
1%
#11400000
b111 &
b111 -
b111 3
b100000001000011100001100000 ,
0%
#11450000
b10001111 "
b10001111 1
b10001111 $
b10001111 7
1%
#11500000
b1111 '
b1111 .
b1111 4
b1101 &
b1101 -
b1101 3
b1110111101010100101010100101110 ,
0%
#11550000
b10101000 #
b10101000 8
b1100100 $
b1100100 7
b10101000 !
b10101000 2
b1100100 "
b1100100 1
1%
#11600000
b1010 '
b1010 .
b1010 4
b11111101010110111110011000101100 ,
0%
#11650000
b11111001 !
b11111001 2
b11111001 #
b11111001 8
1%
